%!PS-Adobe-2.0 EPSF-2.0
%%BoundingBox:  0 0 567 613
%%Title: /afs/cern.ch/work/k/kloew/NtupleGiacomo/Run/Spectrum_Prelim.eps: Resonances of Dimuon
%%Creator: ROOT Version 6.02/12
%%CreationDate: Sun Aug 16 01:26:35 2015
%%EndComments
%%BeginProlog
80 dict begin
/s {stroke} def /l {lineto} def /m {moveto} def /t {translate} def
/r {rotate} def /rl {roll}  def /R {repeat} def
/d {rlineto} def /rm {rmoveto} def /gr {grestore} def /f {eofill} def
/c {setrgbcolor} def /black {0 setgray} def /sd {setdash} def
/cl {closepath} def /sf {scalefont setfont} def /lw {setlinewidth} def
/box {m dup 0 exch d exch 0 d 0 exch neg d cl} def
/NC{systemdict begin initclip end}def/C{NC box clip newpath}def
/bl {box s} def /bf {gsave box gsave f grestore 1 lw [] 0 sd s grestore} def /Y { 0 exch d} def /X { 0 d} def 
/K {{pop pop 0 moveto} exch kshow} bind def
/ita {/ang 15 def gsave [1 0 ang dup sin exch cos div 1 0 0] concat} def 
/mp {newpath /y exch def /x exch def} def
/side {[w .77 mul w .23 mul] .385 w mul sd w 0 l currentpoint t -144 r} def
/mr {mp x y w2 0 360 arc} def /m24 {mr s} def /m20 {mr f} def
/mb {mp x y w2 add m w2 neg 0 d 0 w neg d w 0 d 0 w d cl} def
/mt {mp x y w2 add m w2 neg w neg d w 0 d cl} def
/m21 {mb f} def /m25 {mb s} def /m22 {mt f} def /m26{mt s} def
/m23 {mp x y w2 sub m w2 w d w neg 0 d cl f} def
/m27 {mp x y w2 add m w3 neg w2 neg d w3 w2 neg d w3 w2 d cl s} def
/m28 {mp x w2 sub y w2 sub w3 add m w3 0 d  0 w3 neg d w3 0 d 0 w3 d w3 0 d  0 w3 d w3 neg 0 d 0 w3 d w3 neg 0 d 0 w3 neg d w3 neg 0 d cl s } def
/m29 {mp gsave x w2 sub y w2 add w3 sub m currentpoint t 4 {side} repeat cl fill gr} def
/m30 {mp gsave x w2 sub y w2 add w3 sub m currentpoint t 4 {side} repeat cl s gr} def
/m31 {mp x y w2 sub m 0 w d x w2 sub y m w 0 d x w2 sub y w2 add m w w neg d x w2 sub y w2 sub m w w d s} def
/m32 {mp x y w2 sub m w2 w d w neg 0 d cl s} def
/m33 {mp x y w2 add m w3 neg w2 neg d w3 w2 neg d w3 w2 d cl f} def
/m34 {mp x w2 sub y w2 sub w3 add m w3 0 d  0 w3 neg d w3 0 d 0 w3 d w3 0 d  0 w3 d w3 neg 0 d 0 w3 d w3 neg 0 d 0 w3 neg d w3 neg 0 d cl f } def
/m2 {mp x y w2 sub m 0 w d x w2 sub y m w 0 d s} def
/m5 {mp x w2 sub y w2 sub m w w d x w2 sub y w2 add m w w neg d s} def
/reEncode {exch findfont dup length dict begin {1 index /FID eq  {pop pop} {def} ifelse } forall /Encoding exch def currentdict end dup /FontName get exch definefont pop } def [/Times-Bold /Times-Italic /Times-BoldItalic /Helvetica /Helvetica-Oblique
 /Helvetica-Bold /Helvetica-BoldOblique /Courier /Courier-Oblique /Courier-Bold /Courier-BoldOblique /Times-Roman /AvantGarde-Book /AvantGarde-BookOblique /AvantGarde-Demi /AvantGarde-DemiOblique /Bookman-Demi /Bookman-DemiItalic /Bookman-Light
 /Bookman-LightItalic /Helvetica-Narrow /Helvetica-Narrow-Bold /Helvetica-Narrow-BoldOblique /Helvetica-Narrow-Oblique /NewCenturySchlbk-Roman /NewCenturySchlbk-Bold /NewCenturySchlbk-BoldItalic /NewCenturySchlbk-Italic /Palatino-Bold
 /Palatino-BoldItalic /Palatino-Italic /Palatino-Roman ] {ISOLatin1Encoding reEncode } forall
%%EndProlog
%%BeginSetup
%%EndSetup
newpath  gsave  .25 .25 scale  gsave  0 0 t black[  ] 0 sd 3 lw 1 1 1 c 2268 2450 0 0 bf black 1 1 1 c 1950 2046 272 368 bf black 1950 2046 272 368 bl 1 1 1 c 1950 2046 272 368 bf black 1950 2046 272 368 bl 1 1 1 c black 1 1 1 c 272 368 m 1950 X s
 black 272 368 m 1950 X s
 gsave  2268 2450 0 0 C 2020.4 163.61 t 0 r /Helvetica findfont 72.293 sf 0 0 m ( [GeV]) show NC gr 
 gsave  2268 2450 0 0 C 2001.37 159.806 t 0 r /Symbol findfont 34.244 sf 0 0 m (-) show NC gr 
 gsave  2268 2450 0 0 C 1970.93 144.586 t 0 r /Symbol findfont 49.4636 sf 0 0 m (m) show NC gr 
 gsave  2268 2450 0 0 C 1951.91 159.806 t 0 r /Symbol findfont 34.244 sf 0 0 m (+) show NC gr 
 gsave  2268 2450 0 0 C 1921.47 144.586 t 0 r /Symbol findfont 49.4636 sf 0 0 m (m) show NC gr 
 gsave  2268 2450 0 0 C 1856.79 163.61 t 0 r /Helvetica-Oblique findfont 72.293 sf 0 0 m (m) show NC gr  364 399 m -31 Y s 509 399 m -31 Y s 621 399 m -31 Y s 713 399 m -31 Y s 791 399 m -31 Y s 858 399 m -31 Y s 917 399 m -31 Y s 971 431 m -63 Y s
 gsave  2268 2450 0 0 C 970.514 256.674 t 0 r  -41 0 t /Helvetica findfont 72.293 sf 0 0 m (10) show NC gr  1320 399 m -31 Y s 1524 399 m -31 Y s 1669 399 m -31 Y s 1781 399 m -31 Y s 1873 399 m -31 Y s 1951 399 m -31 Y s 2018 399 m -31 Y s 2077 399
 m -31 Y s 2131 431 m -63 Y s
 gsave  2268 2450 0 0 C 2153.57 292.977 t 0 r /Helvetica findfont 49.4636 sf 0 0 m (2) show NC gr 
 gsave  2268 2450 0 0 C 2073.67 258.733 t 0 r /Helvetica findfont 72.293 sf 0 0 m (10) show NC gr  272 2414 m 1950 X s 364 2382 m 32 Y s 509 2382 m 32 Y s 621 2382 m 32 Y s 713 2382 m 32 Y s 791 2382 m 32 Y s 858 2382 m 32 Y s 917 2382 m 32 Y s 971
 2350 m 64 Y s 1320 2382 m 32 Y s 1524 2382 m 32 Y s 1669 2382 m 32 Y s 1781 2382 m 32 Y s 1873 2382 m 32 Y s 1951 2382 m 32 Y s 2018 2382 m 32 Y s 2077 2382 m 32 Y s 2131 2350 m 64 Y s 272 368 m 2046 Y s
 gsave  2268 2450 0 0 C 117.952 2031.81 t 90 r /Helvetica findfont 72.293 sf 0 0 m (Events/GeV) show NC gr  301 470 m -29 X s 301 530 m -29 X s 301 573 m -29 X s 301 606 m -29 X s 301 633 m -29 X s 301 656 m -29 X s 301 676 m -29 X s 301 693 m -29 X
 s 329 709 m -57 X s
 gsave  2268 2450 0 0 C 224.489 711.515 t 0 r /Helvetica findfont 49.4636 sf 0 0 m (3) show NC gr 
 gsave  2268 2450 0 0 C 144.586 677.271 t 0 r /Helvetica findfont 72.293 sf 0 0 m (10) show NC gr  301 811 m -29 X s 301 871 m -29 X s 301 914 m -29 X s 301 947 m -29 X s 301 974 m -29 X s 301 997 m -29 X s 301 1017 m -29 X s 301 1034 m -29 X s 329
 1050 m -57 X s
 gsave  2268 2450 0 0 C 224.489 1046.35 t 0 r /Helvetica findfont 49.4636 sf 0 0 m (4) show NC gr 
 gsave  2268 2450 0 0 C 144.586 1015.91 t 0 r /Helvetica findfont 72.293 sf 0 0 m (10) show NC gr  301 1152 m -29 X s 301 1212 m -29 X s 301 1255 m -29 X s 301 1288 m -29 X s 301 1315 m -29 X s 301 1338 m -29 X s 301 1358 m -29 X s 301 1375 m -29 X s
 329 1391 m -57 X s
 gsave  2268 2450 0 0 C 224.489 1392.59 t 0 r /Helvetica findfont 49.4636 sf 0 0 m (5) show NC gr 
 gsave  2268 2450 0 0 C 144.586 1358.35 t 0 r /Helvetica findfont 72.293 sf 0 0 m (10) show NC gr  301 1493 m -29 X s 301 1553 m -29 X s 301 1596 m -29 X s 301 1629 m -29 X s 301 1656 m -29 X s 301 1679 m -29 X s 301 1699 m -29 X s 301 1716 m -29 X s
 329 1732 m -57 X s
 gsave  2268 2450 0 0 C 224.489 1735.03 t 0 r /Helvetica findfont 49.4636 sf 0 0 m (6) show NC gr 
 gsave  2268 2450 0 0 C 144.586 1700.79 t 0 r /Helvetica findfont 72.293 sf 0 0 m (10) show NC gr  301 1834 m -29 X s 301 1894 m -29 X s 301 1937 m -29 X s 301 1970 m -29 X s 301 1997 m -29 X s 301 2020 m -29 X s 301 2040 m -29 X s 301 2057 m -29 X s
 329 2073 m -57 X s
 gsave  2268 2450 0 0 C 224.489 2069.86 t 0 r /Helvetica findfont 49.4636 sf 0 0 m (7) show NC gr 
 gsave  2268 2450 0 0 C 144.586 2039.42 t 0 r /Helvetica findfont 72.293 sf 0 0 m (10) show NC gr  301 2175 m -29 X s 301 2235 m -29 X s 301 2278 m -29 X s 301 2311 m -29 X s 301 2338 m -29 X s 301 2361 m -29 X s 301 2381 m -29 X s 301 2398 m -29 X s
 329 2414 m -57 X s
 gsave  2268 2450 0 0 C 224.489 2416.11 t 0 r /Helvetica findfont 49.4636 sf 0 0 m (8) show NC gr 
 gsave  2268 2450 0 0 C 144.586 2381.86 t 0 r /Helvetica findfont 72.293 sf 0 0 m (10) show NC gr  2222 368 m 2046 Y s 2194 470 m 28 X s 2194 530 m 28 X s 2194 573 m 28 X s 2194 606 m 28 X s 2194 633 m 28 X s 2194 656 m 28 X s 2194 676 m 28 X s 2194
 693 m 28 X s 2166 709 m 56 X s 2194 811 m 28 X s 2194 871 m 28 X s 2194 914 m 28 X s 2194 947 m 28 X s 2194 974 m 28 X s 2194 997 m 28 X s 2194 1017 m 28 X s 2194 1034 m 28 X s 2166 1050 m 56 X s 2194 1152 m 28 X s 2194 1212 m 28 X s 2194 1255 m 28
 X s 2194 1288 m 28 X s 2194 1315 m 28 X s 2194 1338 m 28 X s 2194 1358 m 28 X s 2194 1375 m 28 X s 2166 1391 m 56 X s 2194 1493 m 28 X s 2194 1553 m 28 X s 2194 1596 m 28 X s 2194 1629 m 28 X s 2194 1656 m 28 X s 2194 1679 m 28 X s 2194 1699 m 28 X
 s 2194 1716 m 28 X s 2166 1732 m 56 X s 2194 1834 m 28 X s 2194 1894 m 28 X s 2194 1937 m 28 X s 2194 1970 m 28 X s 2194 1997 m 28 X s 2194 2020 m 28 X s 2194 2040 m 28 X s 2194 2057 m 28 X s 2166 2073 m 56 X s 2194 2175 m 28 X s 2194 2235 m 28 X s
 2194 2278 m 28 X s 2194 2311 m 28 X s 2194 2338 m 28 X s 2194 2361 m 28 X s 2194 2381 m 28 X s 2194 2398 m 28 X s 2166 2414 m 56 X s 1 1 1 c 0 245 1361 2034 bf black
 gsave  2268 2450 0 0 C 1670.35 2191.62 t 0 r /Helvetica findfont 83.7077 sf 0 0 m ( Preliminary) show NC gr 
 gsave  2268 2450 0 0 C 1384.98 2191.62 t 0 r /Helvetica-BoldOblique findfont 83.7077 sf 0 0 m (ATLAS) show NC gr 
 gsave  2268 2450 0 0 C 1358.35 2191.62 t 0 r /Helvetica findfont 83.7077 sf 0 0 m ( ) show NC gr 
 gsave  2268 2450 0 0 C 1902.45 2069.86 t 0 r /Helvetica findfont 60.8783 sf 0 0 m ( ) show NC gr 
 gsave  2268 2450 0 0 C 1875.81 2100.3 t 0 r /Helvetica findfont 38.0489 sf 0 0 m (\2551) show NC gr 
 gsave  2268 2450 0 0 C 1423.03 2069.86 t 0 r /Helvetica findfont 60.8783 sf 0 0 m ( = 13 TeV, 85 pb) show NC gr 
 gsave  2268 2450 0 0 C 1388.79 2069.86 t 0 r /Helvetica-Oblique findfont 60.8783 sf 0 0 m (s) show NC gr  6 lw 1370 2104 m 4 -38 d s 0 lw 1374 2066 m 7 57 d s 1381 2123 m 42 X s 3 lw 1 1 1 c black /w 12 def /w2 {w 2 div} def /w3 {w 3 div} def 273
 1604 m20 275 1607 m20 276 1610 m20 277 1606 m20 279 1610 m20 280 1614 m20 282 1614 m20 283 1614 m20 284 1614 m20 286 1615 m20 287 1618 m20 289 1619 m20 290 1618 m20 291 1618 m20 293 1616 m20 294 1621 m20 296 1620 m20 297 1613 m20 299 1617 m20 300
 1615 m20 302 1617 m20 303 1618 m20 305 1616 m20 306 1620 m20 308 1617 m20 309 1617 m20 311 1610 m20 312 1615 m20 314 1612 m20 315 1618 m20 317 1619 m20 318 1611 m20 320 1615 m20 322 1614 m20 323 1611 m20 325 1610 m20 326 1615 m20 328 1611 m20 330
 1614 m20 331 1611 m20 333 1614 m20 334 1612 m20 336 1615 m20 338 1616 m20 339 1621 m20 341 1619 m20 343 1623 m20 344 1625 m20 346 1632 m20 348 1638 m20 350 1646 m20 351 1655 m20 353 1664 m20 355 1677 m20 356 1691 m20 358 1713 m20 360 1735 m20 362
 1760 m20 363 1789 m20 365 1819 m20 367 1857 m20 369 1889 m20 371 1924 m20 372 1956 m20 374 1984 m20 376 2007 m20 378 2022 m20 380 2028 m20 382 2025 m20 383 2013 m20 385 1993 m20 387 1965 m20 389 1930 m20 391 1892 m20 393 1853 m20 395 1811 m20 396
 1769 m20 398 1726 m20 400 1685 m20 402 1654 m20 404 1615 m20 406 1594 m20 408 1570 m20 410 1556 m20 412 1542 m20 414 1530 m20 416 1526 m20 418 1521 m20 420 1514 m20 422 1508 m20 424 1503 m20 426 1502 m20 428 1498 m20 430 1497 m20 432 1498 m20 434
 1496 m20 436 1492 m20 438 1493 m20 440 1487 m20 442 1491 m20 444 1489 m20 446 1496 m20 448 1491 m20 450 1502 m20 452 1512 m20 454 1519 m20 456 1537 m20 459 1549 m20 461 1570 m20 463 1589 m20 465 1596 m20 467 1601 m20 469 1597 m20 471 1589 m20 473
 1577 m20 476 1555 m20 478 1532 m20 480 1513 m20 482 1496 m20 484 1475 m20 487 1467 m20 489 1459 m20 492 1450 m20 494 1447 m20 497 1444 m20 499 1440 m20 502 1441 m20 505 1435 m20 508 1436 m20 510 1437 m20 513 1430 m20 517 1437 m20 520 1430 m20 523
 1431 m20 526 1425 m20 530 1426 m20 533 1424 m20 537 1424 m20 541 1424 m20 545 1423 m20 549 1418 m20 553 1418 m20 557 1415 m20 561 1412 m20 566 1411 m20 571 1413 m20 575 1411 m20 580 1404 m20 585 1401 m20 590 1405 m20 595 1400 m20 600 1401 m20 606
 1400 m20 611 1400 m20 617 1400 m20 623 1396 m20 629 1398 m20 635 1396 m20 641 1397 m20 647 1394 m20 653 1398 m20 660 1397 m20 667 1396 m20 673 1396 m20 680 1397 m20 687 1396 m20 694 1397 m20 701 1397 m20 708 1396 m20 715 1401 m20 723 1398 m20 730
 1402 m20 734 1405 m s 738 1405 m20 742 1405 m s 749 1405 m s 746 1405 m20 749 1404 m 1 X s 757 1404 m s 753 1404 m20 757 1410 m s 765 1410 m s 761 1410 m20 765 1407 m s 773 1407 m s 769 1407 m20 773 1414 m s 781 1414 m s 777 1414 m20 781 1411 m s
 789 1411 m s 785 1411 m20 789 1414 m s 797 1414 m s 793 1414 m20 797 1420 m 1 X s 805 1420 m 1 X s 801 1420 m20 806 1420 m s 813 1420 m 1 X s 810 1420 m20 814 1423 m s 822 1423 m s 818 1423 m20 822 1426 m 1 X s 830 1426 m 1 X s 826 1426 m20 831 1429
 m s 839 1429 m s 835 1429 m20 839 1431 m 1 X s 847 1431 m 1 X s 843 1431 m20 848 1436 m s 856 1436 m s 852 1436 m20 856 1442 m 1 X s 864 1442 m 1 X s 860 1442 m20 865 1446 m s 873 1446 m s 869 1446 m20 873 1451 m 1 X s 882 1451 m s 878 1451 m20 882
 1458 m 1 X s 890 1458 m 1 X s 887 1458 m20 891 1462 m 1 X s 899 1462 m 1 X s 895 1462 m20 900 1470 m s 908 1470 m 1 X s 904 1470 m20 909 1478 m s 917 1478 m s 913 1478 m20 918 1486 m20 918 1490 m20 919 1486 m20 920 1486 m20 921 1491 m20 922 1496 m20
 924 1500 m20 925 1509 m20 927 1514 m20 929 1532 m20 932 1551 m20 934 1571 m20 936 1598 m20 939 1615 m20 942 1627 m20 945 1624 m20 948 1604 m20 952 1576 m20 955 1549 m20 959 1535 m20 962 1533 m20 966 1542 m20 970 1552 m20 975 1552 m20 979 1544 m20
 983 1537 m20 988 1533 m20 993 1523 m20 998 1510 m20 1002 1498 m20 1007 1493 m20 1013 1491 m20 1018 1492 m20 1023 1490 m20 1029 1492 m20 1034 1490 m20 1040 1489 m20 1045 1487 m20 1051 1480 m20 1057 1473 m20 1063 1461 m20 1069 1448 m20 1076 1438 m20
 1083 1433 m20 1086 1427 m 1 X s 1094 1427 m s 1090 1427 m20 1094 1425 m 1 X s 1103 1425 m 1 X s 1099 1425 m20 1104 1421 m 1 X s 1113 1421 m 1 X s 1109 1421 m20 1114 1419 m 2 X s 1123 1419 m 2 X s 1120 1419 m20 1125 1413 m 3 X s 1136 1413 m 2 X s
 1132 1413 m20 1138 1403 m 3 X s 1149 1403 m 3 X s 1145 1403 m20 1152 1396 m 4 X s 1164 1396 m 4 X s 1160 1396 m20 1168 1389 m 5 X s 1180 1389 m 5 X s 1176 1389 m20 1185 1381 m 5 X s 1198 1381 m 5 X s 1194 1381 m20 1203 1376 m 7 X s 1217 1376 m 6 X s
 1213 1376 m20 1223 1367 m 7 X s 1238 1367 m 7 X s 1234 1367 m20 1245 1356 m 7 X s 1260 1356 m 7 X s 1256 1356 m20 1267 1343 m 9 X s 1283 1343 m 8 X s 1279 1343 m20 1291 1331 m 9 X s 1308 1331 m 8 X s 1304 1331 m20 1316 1318 m 10 X s 1333 1318 m 9 X
 s 1329 1318 m20 1342 1302 m 10 X s 1360 1302 m 9 X s 1356 1302 m20 1369 1283 m 11 X s 1387 1283 m 10 X s 1384 1283 m20 1397 1266 m 11 X s 1416 1266 m 10 X s 1412 1266 m20 1426 1246 m 11 X s 1445 1246 m 10 X s 1441 1246 m20 1455 1227 m 12 X s 1474
 1227 m 11 X s 1471 1227 m20 1485 1205 m 12 X s 1504 1205 m 12 X s 1501 1205 m20 1516 1179 m 11 X s 1535 1179 m 11 X s 1531 1179 m20 1546 1156 m 12 X s 1566 1156 m 11 X s 1562 1156 m20 1577 1130 m 12 X s 1597 1130 m 11 X s 1593 1130 m20 1608 1102 m
 12 X s 1628 1102 m 11 X s 1624 1102 m20 1639 1073 m 13 X s 1659 1073 m 12 X s 1655 1073 m20 1671 1045 m 12 X s 1690 1045 m 12 X s 1687 1045 m20 1702 1011 m 12 X s 1722 1011 m 11 X s 1718 1011 m20 1733 984 m 12 X s 1753 984 m 11 X s 1749 984 m20 1764
 951 m 12 X s 1784 951 m 11 X s 1780 951 m20 1795 917 m 12 X s 1814 917 m 12 X s 1811 917 m20 1826 880 m 11 X s 1845 880 m 11 X s 1841 880 m20 1856 840 m 12 X s 1875 840 m 12 X s 1872 840 m20 1887 796 m 11 X s 1906 796 m 11 X s 1902 796 m20 1932 764
 m s 1917 768 m 11 X s 1935 768 m 11 X s 1932 768 m20 1961 742 m s 1961 750 m s 1946 746 m 11 X s 1965 746 m 11 X s 1961 746 m20 1990 730 m 1 Y s 1990 738 m 1 Y s 1976 734 m 11 X s 1994 734 m 11 X s 1990 734 m20 2019 739 m s 2019 747 m s 2005 743 m
 11 X s 2023 743 m 11 X s 2019 743 m20 2035 765 m s 2035 769 m20 2039 790 m20 2044 802 m20 2050 836 m20 2053 892 m s 2061 892 m s 2057 892 m20 2061 962 m 1 X s 2069 962 m 1 X s 2066 962 m20 2070 1029 m 1 X s 2079 1029 m 1 X s 2075 1029 m20 2080 1040
 m 2 X s 2089 1040 m 2 X s 2085 1040 m20 2091 962 m 2 X s 2100 962 m 2 X s 2097 962 m20 2102 828 m 3 X s 2113 828 m 2 X s 2109 828 m20 2122 697 m 1 Y s 2122 706 m 1 Y s 2115 702 m 3 X s 2125 702 m 3 X s 2122 702 m20 2135 614 m 3 Y s 2135 625 m 2 Y s
 2128 621 m 4 X s 2139 621 m 3 X s 2135 621 m20 2150 553 m 4 Y s 2150 565 m 4 Y s 2142 561 m 4 X s 2153 561 m 4 X s 2150 561 m20 1 1 1 c black 273 1604 m 2 3 d 1 3 d 1 -4 d 2 4 d 1 4 d 4 X 2 1 d 1 3 d 2 1 d 1 -1 d 1 X 2 -2 d 1 5 d 2 -1 d 1 -7 d 2 4 d
 1 -2 d 2 2 d 1 1 d 2 -2 d 1 4 d 2 -3 d 1 X 2 -7 d 1 5 d 2 -3 d 1 6 d 2 1 d 1 -8 d 2 4 d 2 -1 d 1 -3 d 2 -1 d 1 5 d 2 -4 d 2 3 d 1 -3 d 2 3 d 1 -2 d 2 3 d 2 1 d 1 5 d 2 -2 d 2 4 d 1 2 d 2 7 d 2 6 d s 348 1638 m 2 8 d 1 9 d 2 9 d 2 13 d 1 14 d 2 22 d
 2 22 d 2 25 d 1 29 d 2 30 d 2 38 d 2 32 d 2 35 d 1 32 d 2 28 d 2 23 d 2 15 d 2 6 d 2 -3 d 1 -12 d 2 -20 d 2 -28 d 2 -35 d 2 -38 d 2 -39 d 2 -42 d 1 -42 d 2 -43 d 2 -41 d 2 -31 d 2 -39 d 2 -21 d 2 -24 d 2 -14 d 2 -14 d 2 -12 d 2 -4 d 2 -5 d 2 -7 d 2
 -6 d 2 -5 d 2 -1 d 2 -4 d 2 -1 d 2 1 d 2 -2 d 2 -4 d 2 1 d 2 -6 d s 440 1487 m 2 4 d 2 -2 d 2 7 d 2 -5 d 2 11 d 2 10 d 2 7 d 2 18 d 3 12 d 2 21 d 2 19 d 2 7 d 2 5 d 2 -4 d 2 -8 d 2 -12 d 3 -22 d 2 -23 d 2 -19 d 2 -17 d 2 -21 d 3 -8 d 2 -8 d 3 -9 d 2
 -3 d 3 -3 d 2 -4 d 3 1 d 3 -6 d 3 1 d 2 1 d 3 -7 d 4 7 d 3 -7 d 3 1 d 3 -6 d 4 1 d 3 -2 d 8 X 4 -1 d 4 -5 d 4 X 4 -3 d 4 -3 d 5 -1 d 5 2 d 4 -2 d 5 -7 d s 580 1404 m 5 -3 d 5 4 d 5 -5 d 5 1 d 6 -1 d 11 X 6 -4 d 6 2 d 6 -2 d 6 1 d 6 -3 d 6 4 d 7 -1 d
 7 -1 d 6 X 7 1 d 7 -1 d 7 1 d 7 X 7 -1 d 7 5 d 8 -3 d 7 4 d 8 3 d 8 X 7 -1 d 8 6 d 8 -3 d 8 7 d 8 -3 d 8 3 d 8 6 d 9 X 8 3 d 8 3 d 9 3 d 8 2 d 9 5 d 8 6 d 9 4 d 9 5 d 9 7 d 8 4 d 9 8 d 9 8 d 5 8 d 4 Y 1 -4 d s 919 1486 m 1 X 1 5 d 1 5 d 2 4 d 1 9 d
 2 5 d 2 18 d 3 19 d 2 20 d 2 27 d 3 17 d 3 12 d 3 -3 d 3 -20 d 4 -28 d 3 -27 d 4 -14 d 3 -2 d 4 9 d 4 10 d 5 X 4 -8 d 4 -7 d 5 -4 d 5 -10 d 5 -13 d 4 -12 d 5 -5 d 6 -2 d 5 1 d 5 -2 d 6 2 d 5 -2 d 6 -1 d 5 -2 d 6 -7 d 6 -7 d 6 -12 d 6 -13 d 7 -10 d 7
 -5 d 7 -6 d 9 -2 d 10 -4 d 11 -2 d 12 -6 d 13 -10 d 15 -7 d 16 -7 d s 1176 1389 m 18 -8 d 19 -5 d 21 -9 d 22 -11 d 23 -13 d 25 -12 d 25 -13 d 27 -16 d 28 -19 d 28 -17 d 29 -20 d 30 -19 d 30 -22 d 30 -26 d 31 -23 d 31 -26 d 31 -28 d 31 -29 d 32 -28 d
 31 -34 d 31 -27 d 31 -33 d 31 -34 d 30 -37 d 31 -40 d 30 -44 d 30 -28 d 29 -22 d 29 -12 d 29 9 d 16 26 d 4 21 d 5 12 d 6 34 d 7 56 d 9 70 d 9 67 d 10 11 d 12 -78 d 12 -134 d 13 -126 d 13 -81 d 15 -60 d s
 gr  gr showpage
end
%%EOF
