%!PS-Adobe-2.0 EPSF-2.0
%%BoundingBox:  0 0 567 551
%%Title: qmu.eps: c1
%%Creator: ROOT Version 6.22/08
%%CreationDate: Wed Aug 18 11:36:46 2021
%%DocumentNeededResources: ProcSet (FontSetInit)
%%EndComments
%%BeginProlog
80 dict begin
/s {stroke} def /l {lineto} def /m {moveto} def /t {translate} def
/r {rotate} def /rl {roll}  def /R {repeat} def
/d {rlineto} def /rm {rmoveto} def /gr {grestore} def /f {eofill} def
/c {setrgbcolor} def /black {0 setgray} def /sd {setdash} def
/cl {closepath} def /sf {scalefont setfont} def /lw {setlinewidth} def
/box {m dup 0 exch d exch 0 d 0 exch neg d cl} def
/NC{systemdict begin initclip end}def/C{NC box clip newpath}def
/bl {box s} def /bf {gsave box gsave f grestore 1 lw [] 0 sd s grestore} def /Y { 0 exch d} def /X { 0 d} def 
/K {{pop pop 0 moveto} exch kshow} bind def
/ita {/ang 15 def gsave [1 0 ang dup sin exch cos div 1 0 0] concat} def 
/mp {newpath /y exch def /x exch def} def
/side {[w .77 mul w .23 mul] .385 w mul sd w 0 l currentpoint t -144 r} def
/mr {mp x y w2 0 360 arc} def /m24 {mr s} def /m20 {mr f} def
/mb {mp x y w2 add m w2 neg 0 d 0 w neg d w 0 d 0 w d cl} def
/mt {mp x y w2 add m w2 neg w neg d w 0 d cl} def
/w4 {w 4 div} def
/w6 {w 6 div} def
/w8 {w 8 div} def
/m21 {mb f} def /m25 {mb s} def /m22 {mt f} def /m26{mt s} def
/m23 {mp x y w2 sub m w2 w d w neg 0 d cl f} def
/m27 {mp x y w2 add m w3 neg w2 neg d w3 w2 neg d w3 w2 d cl s} def
/m28 {mp x w2 sub y w2 sub w3 add m w3 0 d  0 w3 neg d w3 0 d 0 w3 d w3 0 d  0 w3 d w3 neg 0 d 0 w3 d w3 neg 0 d 0 w3 neg d w3 neg 0 d cl s } def
/m29 {mp gsave x w2 sub y w2 add w3 sub m currentpoint t 4 {side} repeat cl fill gr} def
/m30 {mp gsave x w2 sub y w2 add w3 sub m currentpoint t 4 {side} repeat cl s gr} def
/m31 {mp x y w2 sub m 0 w d x w2 sub y m w 0 d x w2 .707 mul sub y w2 .707 mul add m w 1.44 div w 1.44 div neg d x w2 .707 mul sub y w2 .707 mul sub m w 1.44 div w 1.44 div d s} def
/m32 {mp x y w2 sub m w2 w d w neg 0 d cl s} def
/m33 {mp x y w2 add m w3 neg w2 neg d w3 w2 neg d w3 w2 d cl f} def
/m34 {mp x w2 sub y w2 sub w3 add m w3 0 d  0 w3 neg d w3 0 d 0 w3 d w3 0 d  0 w3 d w3 neg 0 d 0 w3 d w3 neg 0 d 0 w3 neg d w3 neg 0 d cl f } def
/m35 {mp x y w2 add m w2 neg w2 neg d w2 w2 neg d w2 w2 d w2 neg w2 d x y w2 sub m 0 w d x w2 sub y m w 0 d s} def
/m36 {mb x w2 sub y w2 add m w w neg d x w2 sub y w2 sub m w w d s} def
/m37 {mp x y m w4 neg w2 d w4 neg w2 neg d w2 0 d  w4 neg w2 neg d w2 0 d w4 neg w2 d w2 0 d w4 neg w2 d w4 neg w2 neg d cl s} def
/m38 {mp x w4 sub y w2 add m w4 neg w4 neg d 0 w2 neg d w4 w4 neg d w2 0 d w4 w4 d 0 w2 d w4 neg w4 d w2 neg 0 d x y w2 sub m 0 w d x w2 sub y m w 0 d cl s} def
/m39 {mp x y m w4 neg w2 d w4 neg w2 neg d w2 0 d  w4 neg w2 neg d w2 0 d w4 neg w2 d w2 0 d w4 neg w2 d w4 neg w2 neg d cl f} def
/m40 {mp x y m w4 w2 d w4 w4 neg d w2 neg w4 neg d w2 w4 neg d w4 neg w4 neg d w4 neg w2 d w4 neg w2 neg d w4 neg w4 d w2 w4 d w2 neg w4 d w4 w4 d w4 w2 neg d cl s} def
/m41 {mp x y m w4 w2 d w4 w4 neg d w2 neg w4 neg d w2 w4 neg d w4 neg w4 neg d w4 neg w2 d w4 neg w2 neg d w4 neg w4 d w2 w4 d w2 neg w4 d w4 w4 d w4 w2 neg d cl f} def
/m42 {mp x y w2 add m w8 neg w2 -3 4 div mul d w2 -3 4 div mul w8 neg d w2 3 4 div mul w8 neg d w8 w2 -3 4 div mul d w8 w2 3 4 div mul d w2 3 4 div mul w8 d w2 -3 4 div mul w8 d w8 neg w2 3 4 div mul d cl s} def
/m43 {mp x y w2 add m w8 neg w2 -3 4 div mul d w2 -3 4 div mul w8 neg d w2 3 4 div mul w8 neg d w8 w2 -3 4 div mul d w8 w2 3 4 div mul d w2 3 4 div mul w8 d w2 -3 4 div mul w8 d w8 neg w2 3 4 div mul d cl f} def
/m44 {mp x y m w6 neg w2 d w2 2 3 div mul 0 d w6 neg w2 neg d w2 w6 d 0 w2 -2 3 div mul d w2 neg w6 d w6 w2 neg d w2 -2 3 div mul 0 d w6 w2 d w2 neg w6 neg d 0 w2 2 3 div mul d w2 w6 neg d cl s} def
/m45 {mp x y m w6 neg w2 d w2 2 3 div mul 0 d w6 neg w2 neg d w2 w6 d 0 w2 -2 3 div mul d w2 neg w6 d w6 w2 neg d w2 -2 3 div mul 0 d w6 w2 d w2 neg w6 neg d 0 w2 2 3 div mul d w2 w6 neg d cl f} def
/m46 {mp x y w4 add m w4 neg w4 d w4 neg w4 neg d  w4 w4 neg d w4 neg w4 neg d w4 w4 neg d w4 w4 d w4 w4 neg d w4 w4 d w4 neg w4 d w4 w4 d w4 neg w4 d w4 neg w4 neg d cl s} def
/m47 {mp x y w4 add m w4 neg w4 d w4 neg w4 neg d w4 w4 neg d w4 neg w4 neg d  w4 w4 neg d w4 w4 d w4 w4 neg d w4 w4 d w4 neg w4 d w4 w4 d w4 neg w4 d w4 neg w4 neg d cl f} def
/m48 {mp x y w4 add m w4 neg w4 d w4 neg w4 neg d w4 w4 neg d  w4 neg w4 neg d w4 w4 neg d w4 w4 d w4 w4 neg d w4 w4 d w4 neg w4 d w4 w4 d w4 neg w4 d w4 neg w4 neg d  w4 w4 neg d w4 neg w4 neg d w4 neg w4 d w4 w4 d cl f} def
/m49 {mp x w2 sub w3 add y w2 sub w3 add m  0 w3 neg d w3 0 d 0 w3 d w3 0 d 0 w3 d w3 neg 0 d 0 w3 d w3 neg 0 d 0 w3 neg d w3 neg 0 d 0 w3 neg d w3 0 d 0 w3 d w3 0 d 0 w3 neg d w3 neg 0 d cl f } def
/m2 {mp x y w2 sub m 0 w d x w2 sub y m w 0 d s} def
/m5 {mp x w2 .707 mul sub y w2 .707 mul sub m w 1.44 div w 1.44 div d x w2 .707 mul sub y w2 .707 mul add m w 1.44 div w 1.44 div neg d s} def
%%IncludeResource: ProcSet (FontSetInit)
%%IncludeResource: font Times-Roman
%%IncludeResource: font Times-Italic
%%IncludeResource: font Times-Bold
%%IncludeResource: font Times-BoldItalic
%%IncludeResource: font Helvetica
%%IncludeResource: font Helvetica-Oblique
%%IncludeResource: font Helvetica-Bold
%%IncludeResource: font Helvetica-BoldOblique
%%IncludeResource: font Courier
%%IncludeResource: font Courier-Oblique
%%IncludeResource: font Courier-Bold
%%IncludeResource: font Courier-BoldOblique
%%IncludeResource: font Symbol
%%IncludeResource: font ZapfDingbats
/reEncode {exch findfont dup length dict begin {1 index /FID eq  {pop pop} {def} ifelse } forall /Encoding exch def currentdict end dup /FontName get exch definefont pop } def [/Times-Bold /Times-Italic /Times-BoldItalic /Helvetica /Helvetica-Oblique
 /Helvetica-Bold /Helvetica-BoldOblique /Courier /Courier-Oblique /Courier-Bold /Courier-BoldOblique /Times-Roman /AvantGarde-Book /AvantGarde-BookOblique /AvantGarde-Demi /AvantGarde-DemiOblique /Bookman-Demi /Bookman-DemiItalic /Bookman-Light
 /Bookman-LightItalic /Helvetica-Narrow /Helvetica-Narrow-Bold /Helvetica-Narrow-BoldOblique /Helvetica-Narrow-Oblique /NewCenturySchlbk-Roman /NewCenturySchlbk-Bold /NewCenturySchlbk-BoldItalic /NewCenturySchlbk-Italic /Palatino-Bold
 /Palatino-BoldItalic /Palatino-Italic /Palatino-Roman ] {ISOLatin1Encoding reEncode } forall
%%EndProlog
%%BeginSetup
%%EndSetup
newpath  gsave  .25 .25 scale  gsave  0 0 t black[  ] 0 sd 3 lw 1 1 1 c 2268 2205 0 0 bf black 1 1 1 c 1701 1654 340 331 bf black 1701 1654 340 331 bl 1 1 1 c 1701 1654 340 331 bf black 1701 1654 340 331 bl 1 0 0 c 6 lw 1 1 1 c black 1 0 0 c 383 1564
 m s 383 1564 m s 3 lw black /w 2 def /w2 {w 2 div} def /w3 {w 3 div} def 383 1564 m20 6 lw 1 0 0 c 468 1636 m s 468 1636 m s 3 lw black 468 1636 m20 6 lw 1 0 0 c 553 1671 m s 553 1671 m s 3 lw black 553 1671 m20 6 lw 1 0 0 c 638 1685 m s 638 1685 m
 s 3 lw black 638 1685 m20 6 lw 1 0 0 c 723 1687 m s 723 1687 m s 3 lw black 723 1687 m20 6 lw 1 0 0 c 808 1686 m s 808 1686 m s 3 lw black 808 1686 m20 6 lw 1 0 0 c 893 1670 m s 893 1670 m s 3 lw black 893 1670 m20 6 lw 1 0 0 c 978 1653 m s 978 1653
 m s 3 lw black 978 1653 m20 6 lw 1 0 0 c 1063 1628 m s 1063 1628 m s 3 lw black 1063 1628 m20 6 lw 1 0 0 c 1148 1607 m s 1148 1607 m s 3 lw black 1148 1607 m20 6 lw 1 0 0 c 1233 1579 m s 1233 1579 m s 3 lw black 1233 1579 m20 6 lw 1 0 0 c 1318 1541
 m s 1318 1541 m s 3 lw black 1318 1541 m20 6 lw 1 0 0 c 1403 1515 m s 1403 1515 m s 3 lw black 1403 1515 m20 6 lw 1 0 0 c 1488 1455 m s 1488 1455 m s 3 lw black 1488 1455 m20 6 lw 1 0 0 c 1573 1441 m s 1573 1441 m s 3 lw black 1573 1441 m20 6 lw 1 0
 0 c 1658 1386 m s 1658 1386 m s 3 lw black 1658 1386 m20 6 lw 1 0 0 c 1743 1333 m 1 Y s 1743 1334 m s 3 lw black 1743 1334 m20 6 lw 1 0 0 c 1828 1312 m 1 Y s 1828 1313 m s 3 lw black 1828 1313 m20 6 lw 1 0 0 c 1913 1257 m s 1913 1257 m s 3 lw black
 1913 1257 m20 6 lw 1 0 0 c 1998 1190 m s 1998 1190 m s 3 lw black 1998 1190 m20 6 lw 1 0 0 c 1 1 1 c black 1 0 0 c 340 1564 m 85 X 72 Y 85 X 35 Y 85 X 14 Y 85 X 2 Y 85 X -1 Y 85 X -16 Y 85 X -17 Y 85 X -25 Y 86 X -21 Y 85 X -28 Y 85 X -38 Y 85 X -26
 Y 85 X -60 Y 85 X -14 Y 85 X -55 Y 85 X -52 Y 85 X -21 Y 85 X -56 Y 85 X -67 Y 85 X s black 3 lw 340 331 m 1701 X s 340 380 m -49 Y s 383 356 m -25 Y s 425 356 m -25 Y s 468 356 m -25 Y s 510 356 m -25 Y s 553 380 m -49 Y s 595 356 m -25 Y s 638 356
 m -25 Y s 680 356 m -25 Y s 723 356 m -25 Y s 765 380 m -49 Y s 808 356 m -25 Y s 850 356 m -25 Y s 893 356 m -25 Y s 935 356 m -25 Y s 978 380 m -49 Y s 1020 356 m -25 Y s 1063 356 m -25 Y s 1106 356 m -25 Y s 1148 356 m -25 Y s 1191 380 m -49 Y s
 1233 356 m -25 Y s 1276 356 m -25 Y s 1318 356 m -25 Y s 1361 356 m -25 Y s 1403 380 m -49 Y s 1446 356 m -25 Y s 1488 356 m -25 Y s 1531 356 m -25 Y s 1573 356 m -25 Y s 1616 380 m -49 Y s 1658 356 m -25 Y s 1701 356 m -25 Y s 1743 356 m -25 Y s
 1786 356 m -25 Y s 1828 380 m -49 Y s 1871 356 m -25 Y s 1913 356 m -25 Y s 1956 356 m -25 Y s 1998 356 m -25 Y s 2041 380 m -49 Y s
 gsave  2268 2205 0 0 C 318.276 258.599 t 0 r /Helvetica findfont 71.0438 sf 0 0 m (0) show NC gr 
 gsave  2268 2205 0 0 C 531.407 258.599 t 0 r /Helvetica findfont 71.0438 sf 0 0 m (5) show NC gr 
 gsave  2268 2205 0 0 C 724.646 258.599 t 0 r /Helvetica findfont 71.0438 sf 0 0 m (10) show NC gr 
 gsave  2268 2205 0 0 C 937.778 258.599 t 0 r /Helvetica findfont 71.0438 sf 0 0 m (15) show NC gr 
 gsave  2268 2205 0 0 C 1148.07 258.599 t 0 r /Helvetica findfont 71.0438 sf 0 0 m (20) show NC gr 
 gsave  2268 2205 0 0 C 1361.2 258.599 t 0 r /Helvetica findfont 71.0438 sf 0 0 m (25) show NC gr 
 gsave  2268 2205 0 0 C 1574.33 258.599 t 0 r /Helvetica findfont 71.0438 sf 0 0 m (30) show NC gr 
 gsave  2268 2205 0 0 C 1787.46 258.599 t 0 r /Helvetica findfont 71.0438 sf 0 0 m (35) show NC gr 
 gsave  2268 2205 0 0 C 2000.59 258.599 t 0 r /Helvetica findfont 71.0438 sf 0 0 m (40) show NC gr 
 gsave  2268 2205 0 0 C 2003.43 102.303 t 0 r /Helvetica findfont 68.202 sf 0 0 m (0) show NC gr 
 gsave  2268 2205 0 0 C 1952.28 153.454 t 0 r /Helvetica findfont 102.303 sf 0 0 m (q) show NC gr  340 1985 m 1701 X s 340 1935 m 50 Y s 383 1960 m 25 Y s 425 1960 m 25 Y s 468 1960 m 25 Y s 510 1960 m 25 Y s 553 1935 m 50 Y s 595 1960 m 25 Y s 638
 1960 m 25 Y s 680 1960 m 25 Y s 723 1960 m 25 Y s 765 1935 m 50 Y s 808 1960 m 25 Y s 850 1960 m 25 Y s 893 1960 m 25 Y s 935 1960 m 25 Y s 978 1935 m 50 Y s 1020 1960 m 25 Y s 1063 1960 m 25 Y s 1106 1960 m 25 Y s 1148 1960 m 25 Y s 1191 1935 m 50
 Y s 1233 1960 m 25 Y s 1276 1960 m 25 Y s 1318 1960 m 25 Y s 1361 1960 m 25 Y s 1403 1935 m 50 Y s 1446 1960 m 25 Y s 1488 1960 m 25 Y s 1531 1960 m 25 Y s 1573 1960 m 25 Y s 1616 1935 m 50 Y s 1658 1960 m 25 Y s 1701 1960 m 25 Y s 1743 1960 m 25 Y
 s 1786 1960 m 25 Y s 1828 1935 m 50 Y s 1871 1960 m 25 Y s 1913 1960 m 25 Y s 1956 1960 m 25 Y s 1998 1960 m 25 Y s 2041 1935 m 50 Y s 340 331 m 1654 Y s 391 331 m -51 X s
 gsave  2268 2205 0 0 C 295.542 332.485 t 0 r /Helvetica findfont 48.3097 sf 0 0 m (8) show NC gr 
 gsave  2268 2205 0 0 C 267.125 332.485 t 0 r /Symbol findfont 48.3097 sf 0 0 m (-) show NC gr 
 gsave  2268 2205 0 0 C 190.397 298.384 t 0 r /Helvetica findfont 71.0438 sf 0 0 m (10) show NC gr  366 391 m -26 X s 366 426 m -26 X s 366 451 m -26 X s 366 470 m -26 X s 366 486 m -26 X s 366 499 m -26 X s 366 511 m -26 X s 366 521 m -26 X s 391
 530 m -51 X s
 gsave  2268 2205 0 0 C 295.542 528.565 t 0 r /Helvetica findfont 48.3097 sf 0 0 m (7) show NC gr 
 gsave  2268 2205 0 0 C 267.125 528.565 t 0 r /Symbol findfont 48.3097 sf 0 0 m (-) show NC gr 
 gsave  2268 2205 0 0 C 190.397 497.306 t 0 r /Helvetica findfont 71.0438 sf 0 0 m (10) show NC gr  366 590 m -26 X s 366 625 m -26 X s 366 650 m -26 X s 366 669 m -26 X s 366 685 m -26 X s 366 698 m -26 X s 366 710 m -26 X s 366 720 m -26 X s 391
 729 m -51 X s
 gsave  2268 2205 0 0 C 295.542 730.33 t 0 r /Helvetica findfont 48.3097 sf 0 0 m (6) show NC gr 
 gsave  2268 2205 0 0 C 267.125 730.33 t 0 r /Symbol findfont 48.3097 sf 0 0 m (-) show NC gr 
 gsave  2268 2205 0 0 C 190.397 696.229 t 0 r /Helvetica findfont 71.0438 sf 0 0 m (10) show NC gr  366 789 m -26 X s 366 824 m -26 X s 366 849 m -26 X s 366 869 m -26 X s 366 884 m -26 X s 366 898 m -26 X s 366 909 m -26 X s 366 919 m -26 X s 391
 929 m -51 X s
 gsave  2268 2205 0 0 C 295.542 929.252 t 0 r /Helvetica findfont 48.3097 sf 0 0 m (5) show NC gr 
 gsave  2268 2205 0 0 C 267.125 929.252 t 0 r /Symbol findfont 48.3097 sf 0 0 m (-) show NC gr 
 gsave  2268 2205 0 0 C 190.397 895.151 t 0 r /Helvetica findfont 71.0438 sf 0 0 m (10) show NC gr  366 988 m -26 X s 366 1024 m -26 X s 366 1048 m -26 X s 366 1068 m -26 X s 366 1084 m -26 X s 366 1097 m -26 X s 366 1108 m -26 X s 366 1119 m -26 X s
 391 1128 m -51 X s
 gsave  2268 2205 0 0 C 295.542 1125.33 t 0 r /Helvetica findfont 48.3097 sf 0 0 m (4) show NC gr 
 gsave  2268 2205 0 0 C 267.125 1125.33 t 0 r /Symbol findfont 48.3097 sf 0 0 m (-) show NC gr 
 gsave  2268 2205 0 0 C 190.397 1094.07 t 0 r /Helvetica findfont 71.0438 sf 0 0 m (10) show NC gr  366 1188 m -26 X s 366 1223 m -26 X s 366 1248 m -26 X s 366 1267 m -26 X s 366 1283 m -26 X s 366 1296 m -26 X s 366 1308 m -26 X s 366 1318 m -26 X
 s 391 1327 m -51 X s
 gsave  2268 2205 0 0 C 295.542 1327.1 t 0 r /Helvetica findfont 48.3097 sf 0 0 m (3) show NC gr 
 gsave  2268 2205 0 0 C 267.125 1327.1 t 0 r /Symbol findfont 48.3097 sf 0 0 m (-) show NC gr 
 gsave  2268 2205 0 0 C 190.397 1293 t 0 r /Helvetica findfont 71.0438 sf 0 0 m (10) show NC gr  366 1387 m -26 X s 366 1422 m -26 X s 366 1447 m -26 X s 366 1466 m -26 X s 366 1482 m -26 X s 366 1495 m -26 X s 366 1507 m -26 X s 366 1517 m -26 X s
 391 1526 m -51 X s
 gsave  2268 2205 0 0 C 295.542 1526.02 t 0 r /Helvetica findfont 48.3097 sf 0 0 m (2) show NC gr 
 gsave  2268 2205 0 0 C 267.125 1526.02 t 0 r /Symbol findfont 48.3097 sf 0 0 m (-) show NC gr 
 gsave  2268 2205 0 0 C 190.397 1494.76 t 0 r /Helvetica findfont 71.0438 sf 0 0 m (10) show NC gr  366 1586 m -26 X s 366 1621 m -26 X s 366 1646 m -26 X s 366 1665 m -26 X s 366 1681 m -26 X s 366 1695 m -26 X s 366 1706 m -26 X s 366 1716 m -26 X
 s 391 1725 m -51 X s
 gsave  2268 2205 0 0 C 304.067 1724.94 t 0 r /Helvetica findfont 48.3097 sf 0 0 m (1) show NC gr 
 gsave  2268 2205 0 0 C 275.65 1724.94 t 0 r /Symbol findfont 48.3097 sf 0 0 m (-) show NC gr 
 gsave  2268 2205 0 0 C 198.923 1693.68 t 0 r /Helvetica findfont 71.0438 sf 0 0 m (10) show NC gr  366 1785 m -26 X s 366 1821 m -26 X s 366 1845 m -26 X s 366 1865 m -26 X s 366 1880 m -26 X s 366 1894 m -26 X s 366 1905 m -26 X s 366 1916 m -26 X
 s 391 1925 m -51 X s
 gsave  2268 2205 0 0 C 295.542 1898.29 t 0 r /Helvetica findfont 71.0438 sf 0 0 m (1) show NC gr  366 1985 m -26 X s 2041 331 m 1654 Y s 1990 331 m 51 X s 2015 391 m 26 X s 2015 426 m 26 X s 2015 451 m 26 X s 2015 470 m 26 X s 2015 486 m 26 X s 2015
 499 m 26 X s 2015 511 m 26 X s 2015 521 m 26 X s 1990 530 m 51 X s 2015 590 m 26 X s 2015 625 m 26 X s 2015 650 m 26 X s 2015 669 m 26 X s 2015 685 m 26 X s 2015 698 m 26 X s 2015 710 m 26 X s 2015 720 m 26 X s 1990 729 m 51 X s 2015 789 m 26 X s
 2015 824 m 26 X s 2015 849 m 26 X s 2015 869 m 26 X s 2015 884 m 26 X s 2015 898 m 26 X s 2015 909 m 26 X s 2015 919 m 26 X s 1990 929 m 51 X s 2015 988 m 26 X s 2015 1024 m 26 X s 2015 1048 m 26 X s 2015 1068 m 26 X s 2015 1084 m 26 X s 2015 1097 m
 26 X s 2015 1108 m 26 X s 2015 1119 m 26 X s 1990 1128 m 51 X s 2015 1188 m 26 X s 2015 1223 m 26 X s 2015 1248 m 26 X s 2015 1267 m 26 X s 2015 1283 m 26 X s 2015 1296 m 26 X s 2015 1308 m 26 X s 2015 1318 m 26 X s 1990 1327 m 51 X s 2015 1387 m 26
 X s 2015 1422 m 26 X s 2015 1447 m 26 X s 2015 1466 m 26 X s 2015 1482 m 26 X s 2015 1495 m 26 X s 2015 1507 m 26 X s 2015 1517 m 26 X s 1990 1526 m 51 X s 2015 1586 m 26 X s 2015 1621 m 26 X s 2015 1646 m 26 X s 2015 1665 m 26 X s 2015 1681 m 26 X
 s 2015 1695 m 26 X s 2015 1706 m 26 X s 2015 1716 m 26 X s 1990 1725 m 51 X s 2015 1785 m 26 X s 2015 1821 m 26 X s 2015 1845 m 26 X s 2015 1865 m 26 X s 2015 1880 m 26 X s 2015 1894 m 26 X s 2015 1905 m 26 X s 2015 1916 m 26 X s 1990 1925 m 51 X s
 2015 1985 m 26 X s 0 0 1 c 6 lw 1 1 1 c black 0 0 1 c 383 1857 m s 383 1857 m s 3 lw black 383 1857 m20 6 lw 0 0 1 c 468 1620 m s 468 1620 m s 3 lw black 468 1620 m20 6 lw 0 0 1 c 553 1502 m s 553 1502 m s 3 lw black 553 1502 m20 6 lw 0 0 1 c 638
 1413 m s 638 1413 m s 3 lw black 638 1413 m20 6 lw 0 0 1 c 723 1299 m s 723 1299 m s 3 lw black 723 1299 m20 6 lw 0 0 1 c 808 1219 m s 808 1219 m s 3 lw black 808 1219 m20 6 lw 0 0 1 c 893 1133 m s 893 1133 m s 3 lw black 893 1133 m20 6 lw 0 0 1 c
 978 1051 m 1 Y s 978 1052 m s 3 lw black 978 1052 m20 6 lw 0 0 1 c 1063 925 m 1 Y s 1063 926 m 1 Y s 3 lw black 1063 926 m20 6 lw 0 0 1 c 1148 901 m 1 Y s 1148 902 m s 3 lw black 1148 902 m20 6 lw 0 0 1 c 1233 765 m 2 Y s 1233 767 m 1 Y s 3 lw black
 1233 767 m20 6 lw 0 0 1 c 1318 740 m 2 Y s 1318 742 m 2 Y s 3 lw black 1318 742 m20 6 lw 0 0 1 c 1403 594 m 5 Y s 1403 599 m 4 Y s 3 lw black 1403 599 m20 6 lw 0 0 1 c 1488 565 m 5 Y s 1488 570 m 5 Y s 3 lw black 1488 570 m20 6 lw 0 0 1 c 1573 415 m
 12 Y s 1573 427 m 11 Y s 3 lw black 1573 427 m20 6 lw 0 0 1 c 1658 331 m 12 Y s 1658 343 m 16 Y s 3 lw black 1658 343 m20 6 lw 0 0 1 c 1 1 1 c black 0 0 1 c 340 1857 m 85 X -237 Y 85 X -118 Y 85 X -89 Y 85 X -114 Y 85 X -80 Y 85 X -86 Y 85 X -81 Y
 85 X -126 Y 86 X -24 Y 85 X -135 Y 85 X -25 Y 85 X -143 Y 85 X -29 Y 85 X -143 Y 85 X -84 Y 85 X -12 Y 340 X s[ 12 12] 0 sd 3 lw 0.95 0.95 0.95 c black 0 0 1 c 349 1844 m 17 -64 d 17 -39 d 17 -32 d 17 -28 d 17 -26 d 17 -24 d 17 -24 d 17 -22 d 17 -22
 d 17 -22 d 17 -21 d 17 -21 d 17 -21 d 17 -20 d 17 -20 d 17 -20 d 17 -20 d 17 -20 d 17 -20 d 17 -19 d 17 -19 d 17 -20 d 17 -19 d 17 -19 d 17 -19 d 17 -19 d 17 -19 d 17 -19 d 17 -18 d 17 -19 d 17 -19 d 17 -19 d 17 -18 d 17 -19 d 17 -18 d 17 -19 d 17
 -18 d 17 -19 d 17 -18 d 17 -18 d 17 -19 d 17 -18 d 17 -18 d 17 -19 d 17 -18 d 17 -18 d 17 -18 d 17 -19 d 17 -18 d s 1182 799 m 17 -18 d 17 -18 d 17 -18 d 17 -18 d 17 -18 d 17 -19 d 17 -18 d 17 -18 d 17 -18 d 17 -18 d 17 -18 d 17 -18 d 17 -18 d 17
 -18 d 17 -18 d 17 -18 d 17 -18 d 17 -18 d 17 -18 d 17 -18 d 17 -17 d 17 -18 d 17 -18 d 17 -18 d 17 -18 d 17 -18 d 1 X s 1 0 0 c 0.95 0.95 0.95 c black 1 0 0 c 349 1519 m 17 27 d 17 24 d 17 19 d 17 16 d 17 14 d 17 11 d 17 10 d 17 9 d 17 7 d 17 6 d 17
 6 d 17 5 d 17 3 d 17 4 d 17 2 d 17 2 d 17 2 d 17 1 d 17 1 d 51 X 17 -1 d 17 -1 d 17 -1 d 17 -2 d 17 -2 d 17 -2 d 17 -2 d 17 -3 d 17 -3 d 17 -3 d 17 -3 d 17 -3 d 17 -4 d 17 -4 d 17 -4 d 17 -4 d 17 -4 d 17 -4 d 17 -5 d 17 -5 d 17 -4 d 17 -5 d 17 -5 d
 17 -6 d 17 -5 d 17 -5 d 17 -6 d s 1182 1592 m 17 -6 d 17 -5 d 17 -6 d 17 -6 d 17 -6 d 17 -6 d 17 -7 d 17 -6 d 17 -6 d 17 -7 d 17 -6 d 17 -7 d 17 -7 d 17 -7 d 17 -7 d 17 -7 d 17 -7 d 17 -7 d 17 -7 d 17 -7 d 17 -8 d 17 -7 d 17 -8 d 17 -7 d 17 -8 d 17
 -7 d 17 -8 d 17 -8 d 17 -8 d 17 -8 d 17 -8 d 17 -8 d 17 -8 d 17 -8 d 17 -8 d 17 -8 d 17 -8 d 17 -9 d 17 -8 d 17 -8 d 17 -9 d 17 -8 d 17 -9 d 17 -8 d 17 -9 d 17 -9 d 17 -9 d 17 -8 d 17 -9 d s 2015 1226 m 17 -9 d s black
 gsave  2268 2205 0 0 C 1400.98 1821.56 t 0 r /Helvetica findfont 102.303 sf 0 0 m (s=20, b=10) show NC gr  1 0 0 c black 1 0 0 c
 gsave  2268 2205 0 0 C 1258.9 1389.62 t 0 r /Helvetica findfont 102.303 sf 0 0 m (|1\)) show NC gr  black 1 0 0 c
 gsave  2268 2205 0 0 C 1221.95 1338.46 t 0 r /Helvetica findfont 68.202 sf 0 0 m (0) show NC gr  black 1 0 0 c
 gsave  2268 2205 0 0 C 1105.44 1389.62 t 0 r /Helvetica findfont 102.303 sf 0 0 m (f\(q) show NC gr  0 0 1 c black 0 0 1 c
 gsave  2268 2205 0 0 C 747.38 988.929 t 0 r /Helvetica findfont 102.303 sf 0 0 m (|0\)) show NC gr  black 0 0 1 c
 gsave  2268 2205 0 0 C 710.438 937.778 t 0 r /Helvetica findfont 68.202 sf 0 0 m (0) show NC gr  black 0 0 1 c
 gsave  2268 2205 0 0 C 593.926 988.929 t 0 r /Helvetica findfont 102.303 sf 0 0 m (f\(q) show NC gr  black
 gsave  2268 2205 0 0 C 1324.26 937.778 t 0 r /Helvetica findfont 68.202 sf 0 0 m (0) show NC gr 
 gsave  2268 2205 0 0 C 1324.26 1025.87 t 0 r /Helvetica findfont 68.202 sf 0 0 m (obs) show NC gr 
 gsave  2268 2205 0 0 C 1273.1 988.929 t 0 r /Helvetica findfont 102.303 sf 0 0 m (q) show NC gr  1 0 0 c black 1 0 0 c
 gsave  2268 2205 0 0 C 750.222 539.932 t 0 r /Helvetica findfont 68.202 sf 0 0 m (0) show NC gr  black 1 0 0 c
 gsave  2268 2205 0 0 C 1003.14 667.811 t 0 r /Helvetica findfont 68.202 sf 0 0 m (|1\)]) show NC gr  black 1 0 0 c
 gsave  2268 2205 0 0 C 977.562 628.027 t 0 r /Helvetica findfont 45.468 sf 0 0 m (0) show NC gr  black 1 0 0 c
 gsave  2268 2205 0 0 C 750.222 667.811 t 0 r /Helvetica findfont 68.202 sf 0 0 m (med[f\(q) show NC gr  black 1 0 0 c
 gsave  2268 2205 0 0 C 699.07 591.084 t 0 r /Helvetica findfont 102.303 sf 0 0 m (q) show NC gr  black[  ] 0 sd 6 lw 1318 929 m -558 Y s 3 lw 1336 371 m -18 -32 d -18 32 d f 6 lw 1336 371 m -18 -32 d -18 32 d 36 X cl s 1 0 0 c 787 511 m -140 Y s 3
 lw 805 371 m -18 -32 d -19 32 d f 6 lw 805 371 m -18 -32 d -19 32 d 37 X cl s
 gr  gr showpage
end
%%EOF
