%!PS-Adobe-3.0 EPSF-3.0
%%BoundingBox: 88 665 496 789
%%Title: MCSimFlow
%%CreationDate: Wed Aug  3 00:03:33 2016
%%Creator: Tgif-4.2.2-QPL written by William Chia-Wei Cheng (bill.cheng@acm.org)
%%ProducedBy: (unknown)
%%Pages: 1
%%DocumentFonts: (atend)
%%EndComments
%%BeginProlog

/tgifdict 54 dict def
tgifdict begin

/tgifarrowtipdict 8 dict def
tgifarrowtipdict /mtrx matrix put

/TGAT % tgifarrowtip
 { tgifarrowtipdict begin
      /dy exch def
      /dx exch def
      /h exch def
      /w exch def
      /y exch def
      /x exch def
      /savematrix mtrx currentmatrix def
      x y translate
      dy dx atan rotate
      0 0 moveto
      w neg h lineto
      w neg h neg lineto
      savematrix setmatrix
   end
 } def

/TGMAX
 { exch dup 3 1 roll exch dup 3 1 roll gt { pop } { exch pop } ifelse
 } def
/TGMIN
 { exch dup 3 1 roll exch dup 3 1 roll lt { pop } { exch pop } ifelse
 } def
/TGSW { stringwidth pop } def
/tgifstrw 0 def

/bd { bind def } bind def

/GS { gsave } bd
/GR { grestore } bd
/NP { newpath } bd
/CP { closepath } bd
/CHP { charpath } bd
/CT { curveto } bd
/L { lineto } bd
/RL { rlineto } bd
/M { moveto } bd
/RM { rmoveto } bd
/S { stroke } bd
/F { fill } bd
/TR { translate } bd
/RO { rotate } bd
/SC { scale } bd
/MU { mul } bd
/DI { div } bd
/DU { dup } bd
/NE { neg } bd
/AD { add } bd
/SU { sub } bd
/PO { pop } bd
/EX { exch } bd
/CO { concat } bd
/CL { clip } bd
/EC { eoclip } bd
/EF { eofill } bd
/IM { image } bd
/IMM { imagemask } bd
/ARY { array } bd
/SG { setgray } bd
/RG { setrgbcolor } bd
/SD { setdash } bd
/W { setlinewidth } bd
/SM { setmiterlimit } bd
/SLC { setlinecap } bd
/SLJ { setlinejoin } bd
/SH { show } bd
/FF { findfont } bd
/MS { makefont setfont } bd
/AR { arcto 4 {pop} repeat } bd
/CURP { currentpoint } bd
/FLAT { flattenpath strokepath clip newpath } bd
/TGSM { tgiforigctm setmatrix } def
/TGRM { savematrix setmatrix } def

end

%%EndProlog
%%Page: 1 1

%%PageBoundingBox: 88 665 496 789
tgifdict begin
/tgifsavedpage save def

1 SM
1 W

0 SG

72 0 MU 72 11.695 MU TR
72 128 DI 100.000 MU 100 DI DU NE SC

GS

/tgiforigctm matrix currentmatrix def

% TEXT
NP
0 SG
   GS
      1 W
      204 156 M
      GS
            0 SG
            /NewCenturySchlbk-Roman FF [14 0 0 -14 0 0] MS
            (Event) SH
      GR
      0 17 RM
      GS
            0 SG
            /NewCenturySchlbk-Roman FF [14 0 0 -14 0 0] MS
            (       Generation) SH
      GR
   GR

% POLY/OPEN-SPLINE
0 SG
GS
   NP
      312 160 M
      0 48 atan DU cos 8.000 MU 360 exch SU
      exch sin 8.000 MU 160 exch SU L
   TGSM
   1 W
   S
GR
GS
   TGSM
   NP
      360 160 8.000 3.000 48 0 TGAT
   1 SG CP F
   0 SG
   NP
      360 160 8.000 3.000 48 0 TGAT
   CP F
GR

% TEXT
NP
0 SG
   GS
      1 W
      376 156 M
      GS
            0 SG
            /NewCenturySchlbk-Roman FF [14 0 0 -14 0 0] MS
            (Detector) SH
      GR
      0 17 RM
      GS
            0 SG
            /NewCenturySchlbk-Roman FF [14 0 0 -14 0 0] MS
            (     Simulation) SH
      GR
   GR

% BOX
0 SG
GS
   10 SM
   GS
      NP 160 96 M 512 96 L 512 224 L 160 224 L CP
      S
   GR
GR

% BOX
0 SG
GS
   10 SM
   GS
      NP 544 128 M 664 128 L 664 192 L 544 192 L CP
      S
   GR
GR

% TEXT
NP
0 SG
   GS
      1 W
      388 284 M
      GS
            0 SG
            /NewCenturySchlbk-Roman FF [14 0 0 -14 0 0] MS
            (Detector) SH
      GR
   GR

% TEXT
NP
0 SG
   GS
      1 W
      556 164 M
      GS
            0 SG
            /NewCenturySchlbk-Roman FF [14 0 0 -14 0 0] MS
            (Reconstruction) SH
      GR
   GR

% POLY/OPEN-SPLINE
0 SG
GS
   NP
      664 144 M
      0 96 atan DU cos 8.000 MU 760 exch SU
      exch sin 8.000 MU 144 exch SU L
   TGSM
   1 W
   S
GR
GS
   TGSM
   NP
      760 144 8.000 3.000 96 0 TGAT
   1 SG CP F
   0 SG
   NP
      760 144 8.000 3.000 96 0 TGAT
   CP F
GR

% POLY/OPEN-SPLINE
0 SG
GS
   NP
      480 160 M
      0 64 atan DU cos 8.000 MU 544 exch SU
      exch sin 8.000 MU 160 exch SU L
   TGSM
   1 W
   S
GR
GS
   TGSM
   NP
      544 160 8.000 3.000 64 0 TGAT
   1 SG CP F
   0 SG
   NP
      544 160 8.000 3.000 64 0 TGAT
   CP F
GR

% TEXT
NP
0 SG
   GS
      1 W
      672 132 M
      GS
            0 SG
            /NewCenturySchlbk-Roman FF [14 0 0 -14 0 0] MS
            (MC events) SH
      GR
   GR

% TEXT
NP
0 SG
   GS
      1 W
      672 200 M
      GS
            0 SG
            /NewCenturySchlbk-Roman FF [14 0 0 -14 0 0] MS
            (Data events) SH
      GR
   GR

% POLY/OPEN-SPLINE
0 SG
GS
   [8 8] 0 SD
   NP
      664 176 M
      0 96 atan DU cos 8.000 MU 760 exch SU
      exch sin 8.000 MU 176 exch SU L
   TGSM
   1 W
   S
   [] 0 SD
GR
GS
   TGSM
   NP
      760 176 8.000 3.000 96 0 TGAT
   1 SG CP F
   0 SG
   NP
      760 176 8.000 3.000 96 0 TGAT
   CP F
GR

% TEXT
NP
0 SG
   GS
      1 W
      172 116 M
      GS
            0 SG
            /NewCenturySchlbk-Roman FF [14 0 0 -14 0 0] MS
            (MC simulation) SH
      GR
   GR

% TEXT
NP
0 SG
   GS
      1 W
      792 164 M
      GS
            0 SG
            /NewCenturySchlbk-Roman FF [14 0 0 -14 0 0] MS
            (Analysis) SH
      GR
   GR

% BOX
0 SG
GS
   10 SM
   GS
      NP 192 128 M 312 128 L 312 192 L 192 192 L CP
      S
   GR
GR

% BOX
0 SG
GS
   10 SM
   GS
      NP 360 128 M 480 128 L 480 192 L 360 192 L CP
      S
   GR
GR

% BOX
0 SG
GS
   10 SM
   GS
      NP 364 248 M 484 248 L 484 312 L 364 312 L CP
      S
   GR
GR

% BOX
0 SG
GS
   10 SM
   GS
      NP 760 128 M 880 128 L 880 192 L 760 192 L CP
      S
   GR
GR

% POLY/OPEN-SPLINE
0 SG
GS
   [8 8] 0 SD
   NP
      484 280 M
      612 280 L
      -88 0 atan DU cos 8.000 MU 612 exch SU
      exch sin 8.000 MU 192 exch SU L
   TGSM
   1 W
   S
   [] 0 SD
GR
GS
   TGSM
   NP
      612 192 8.000 3.000 0 -88 TGAT
   1 SG CP F
   0 SG
   NP
      612 192 8.000 3.000 0 -88 TGAT
   CP F
GR

GR
tgifsavedpage restore
end
showpage

%%Trailer
%MatchingCreationDate: Wed Aug  3 00:03:33 2016
%%DocumentFonts: NewCenturySchlbk-Roman
%%EOF
