%!PS-Adobe-2.0 EPSF-2.0
%%BoundingBox:  0 0 567 550
%%Title: Binomial_8.eps: c8
%%Creator: ROOT Version 5.32/00
%%CreationDate: Wed Jul 30 21:09:48 2014
%%EndComments
%%BeginProlog
80 dict begin
/s {stroke} def /l {lineto} def /m {moveto} def /t {translate} def
/r {rotate} def /rl {roll}  def /R {repeat} def
/d {rlineto} def /rm {rmoveto} def /gr {grestore} def /f {eofill} def
/c {setrgbcolor} def /black {0 setgray} def /sd {setdash} def
/cl {closepath} def /sf {scalefont setfont} def /lw {setlinewidth} def
/box {m dup 0 exch d exch 0 d 0 exch neg d cl} def
/NC{systemdict begin initclip end}def/C{NC box clip newpath}def
/bl {box s} def /bf {box f} def /Y { 0 exch d} def /X { 0 d} def 
/K {{pop pop 0 moveto} exch kshow} bind def
/ita {/ang 15 def gsave [1 0 ang dup sin exch cos div 1 0 0] concat} def 
/mp {newpath /y exch def /x exch def} def
/side {[w .77 mul w .23 mul] .385 w mul sd w 0 l currentpoint t -144 r} def
/mr {mp x y w2 0 360 arc} def /m24 {mr s} def /m20 {mr f} def
/mb {mp x y w2 add m w2 neg 0 d 0 w neg d w 0 d 0 w d cl} def
/mt {mp x y w2 add m w2 neg w neg d w 0 d cl} def
/m21 {mb f} def /m25 {mb s} def /m22 {mt f} def /m26{mt s} def
/m23 {mp x y w2 sub m w2 w d w neg 0 d cl f} def
/m27 {mp x y w2 add m w3 neg w2 neg d w3 w2 neg d w3 w2 d cl s} def
/m28 {mp x w2 sub y w2 sub w3 add m w3 0 d  0 w3 neg d w3 0 d 0 w3 d w3 0 d  0 w3 d w3 neg 0 d 0 w3 d w3 neg 0 d 0 w3 neg d w3 neg 0 d cl s } def
/m29 {mp gsave x w2 sub y w2 add w3 sub m currentpoint t 4 {side} repeat cl fill gr} def
/m30 {mp gsave x w2 sub y w2 add w3 sub m currentpoint t 4 {side} repeat cl s gr} def
/m31 {mp x y w2 sub m 0 w d x w2 sub y m w 0 d x w2 sub y w2 add m w w neg d x w2 sub y w2 sub m w w d s} def
/m32 {mp x y w2 sub m w2 w d w neg 0 d cl s} def
/m33 {mp x y w2 add m w3 neg w2 neg d w3 w2 neg d w3 w2 d cl f} def
/m34 {mp x w2 sub y w2 sub w3 add m w3 0 d  0 w3 neg d w3 0 d 0 w3 d w3 0 d  0 w3 d w3 neg 0 d 0 w3 d w3 neg 0 d 0 w3 neg d w3 neg 0 d cl f } def
/m2 {mp x y w2 sub m 0 w d x w2 sub y m w 0 d s} def
/m5 {mp x w2 sub y w2 sub m w w d x w2 sub y w2 add m w w neg d s} def
/reEncode {exch findfont dup length dict begin {1 index /FID eq  {pop pop} {def} ifelse } forall /Encoding exch def currentdict end dup /FontName get exch definefont pop } def [/Times-Bold /Times-Italic /Times-BoldItalic /Helvetica /Helvetica-Oblique
 /Helvetica-Bold /Helvetica-BoldOblique /Courier /Courier-Oblique /Courier-Bold /Courier-BoldOblique /Times-Roman /AvantGarde-Book /AvantGarde-BookOblique /AvantGarde-Demi /AvantGarde-DemiOblique /Bookman-Demi /Bookman-DemiItalic /Bookman-Light
 /Bookman-LightItalic /Helvetica-Narrow /Helvetica-Narrow-Bold /Helvetica-Narrow-BoldOblique /Helvetica-Narrow-Oblique /NewCenturySchlbk-Roman /NewCenturySchlbk-Bold /NewCenturySchlbk-BoldItalic /NewCenturySchlbk-Italic /Palatino-Bold
 /Palatino-BoldItalic /Palatino-Italic /Palatino-Roman ] {ISOLatin1Encoding reEncode } forall%%EndProlog
%%BeginSetup
%%EndSetup
newpath  gsave  .25 .25 scale  gsave  0 0 t black[  ] 0 sd 3 lw 1 1 1 c 2268 2199 0 0 bf black 1 1 1 c 1633 1649 408 330 bf black 1633 1649 408 330 bl 408 330 m 1633 X s
 gsave  2268 2199 0 0 C 1979.98 85.4667 t 0 r /Helvetica findfont 122.502 sf 0 0 m (n) show NC gr  408 377 m -47 Y s 447 354 m -24 Y s 486 354 m -24 Y s 525 354 m -24 Y s 564 377 m -47 Y s 603 354 m -24 Y s 643 354 m -24 Y s 682 354 m -24 Y s 721 377
 m -47 Y s 760 354 m -24 Y s 799 354 m -24 Y s 838 354 m -24 Y s 877 377 m -47 Y s 916 354 m -24 Y s 955 354 m -24 Y s 994 354 m -24 Y s 1033 377 m -47 Y s 1072 354 m -24 Y s 1111 354 m -24 Y s 1150 354 m -24 Y s 1189 377 m -47 Y s 1228 354 m -24 Y s
 1268 354 m -24 Y s 1307 354 m -24 Y s 1346 377 m -47 Y s 1385 354 m -24 Y s 1424 354 m -24 Y s 1463 354 m -24 Y s 1502 377 m -47 Y s 1541 354 m -24 Y s 1580 354 m -24 Y s 1619 354 m -24 Y s 1658 377 m -47 Y s 1697 354 m -24 Y s 1736 354 m -24 Y s
 1775 354 m -24 Y s 1814 377 m -47 Y s 1853 354 m -24 Y s 1893 354 m -24 Y s 1932 354 m -24 Y s 1971 377 m -47 Y s 1971 377 m -47 Y s 2010 354 m -24 Y s
 gsave  2268 2199 0 0 C 376.053 213.667 t 0 r /Helvetica findfont 122.502 sf 0 0 m (0) show NC gr 
 gsave  2268 2199 0 0 C 532.742 213.667 t 0 r /Helvetica findfont 122.502 sf 0 0 m (2) show NC gr 
 gsave  2268 2199 0 0 C 686.583 213.667 t 0 r /Helvetica findfont 122.502 sf 0 0 m (4) show NC gr 
 gsave  2268 2199 0 0 C 843.271 213.667 t 0 r /Helvetica findfont 122.502 sf 0 0 m (6) show NC gr 
 gsave  2268 2199 0 0 C 997.112 213.667 t 0 r /Helvetica findfont 122.502 sf 0 0 m (8) show NC gr 
 gsave  2268 2199 0 0 C 1122.46 213.667 t 0 r /Helvetica findfont 122.502 sf 0 0 m (10) show NC gr 
 gsave  2268 2199 0 0 C 1279.15 213.667 t 0 r /Helvetica findfont 122.502 sf 0 0 m (12) show NC gr 
 gsave  2268 2199 0 0 C 1435.84 213.667 t 0 r /Helvetica findfont 122.502 sf 0 0 m (14) show NC gr 
 gsave  2268 2199 0 0 C 1592.53 213.667 t 0 r /Helvetica findfont 122.502 sf 0 0 m (16) show NC gr 
 gsave  2268 2199 0 0 C 1746.37 213.667 t 0 r /Helvetica findfont 122.502 sf 0 0 m (18) show NC gr 
 gsave  2268 2199 0 0 C 1903.06 213.667 t 0 r /Helvetica findfont 122.502 sf 0 0 m (20) show NC gr  408 330 m 1649 Y s
 gsave  2268 2199 0 0 C 111.107 1752.07 t 90 r /Helvetica findfont 122.502 sf 0 0 m (P\(n\)) show NC gr  459 330 m -51 X s 434 371 m -26 X s 434 412 m -26 X s 434 454 m -26 X s 434 495 m -26 X s 459 536 m -51 X s 434 577 m -26 X s 434 619 m -26 X s
 434 660 m -26 X s 434 701 m -26 X s 459 742 m -51 X s 434 784 m -26 X s 434 825 m -26 X s 434 866 m -26 X s 434 907 m -26 X s 459 948 m -51 X s 434 990 m -26 X s 434 1031 m -26 X s 434 1072 m -26 X s 434 1113 m -26 X s 459 1155 m -51 X s 434 1196 m
 -26 X s 434 1237 m -26 X s 434 1278 m -26 X s 434 1320 m -26 X s 459 1361 m -51 X s 434 1402 m -26 X s 434 1443 m -26 X s 434 1485 m -26 X s 434 1526 m -26 X s 459 1567 m -51 X s 434 1608 m -26 X s 434 1650 m -26 X s 434 1691 m -26 X s 434 1732 m
 -26 X s 459 1773 m -51 X s 434 1814 m -26 X s 434 1856 m -26 X s 434 1897 m -26 X s 434 1938 m -26 X s 459 1979 m -51 X s
 gsave  2268 2199 0 0 C 333.32 284.889 t 0 r /Helvetica findfont 122.502 sf 0 0 m (0) show NC gr 
 gsave  2268 2199 0 0 C 162.387 492.858 t 0 r /Helvetica findfont 122.502 sf 0 0 m (0.05) show NC gr 
 gsave  2268 2199 0 0 C 247.853 697.978 t 0 r /Helvetica findfont 122.502 sf 0 0 m (0.1) show NC gr 
 gsave  2268 2199 0 0 C 162.387 903.098 t 0 r /Helvetica findfont 122.502 sf 0 0 m (0.15) show NC gr 
 gsave  2268 2199 0 0 C 230.76 1111.07 t 0 r /Helvetica findfont 122.502 sf 0 0 m (0.2) show NC gr 
 gsave  2268 2199 0 0 C 162.387 1316.19 t 0 r /Helvetica findfont 122.502 sf 0 0 m (0.25) show NC gr 
 gsave  2268 2199 0 0 C 230.76 1524.16 t 0 r /Helvetica findfont 122.502 sf 0 0 m (0.3) show NC gr 
 gsave  2268 2199 0 0 C 162.387 1729.28 t 0 r /Helvetica findfont 122.502 sf 0 0 m (0.35) show NC gr 
 gsave  2268 2199 0 0 C 230.76 1934.4 t 0 r /Helvetica findfont 122.502 sf 0 0 m (0.4) show NC gr  /w 46 def /w2 {w 2 div} def /w3 {w 3 div} def 408 330 486 330 564 330 643 330 721 330 799 330 877 330 955 330 1033 330 1111 332 1189 338 1268 360 1346
 421 1424 555 1502 780 1580 1050 1658 1230 1736 1177 1814 894 1893 568 20 { m20} R
 gr  gr showpage
end
%%EOF
