%!PS-Adobe-2.0 EPSF-2.0
%%BoundingBox:  0 0 567 386
%%Title: ./c1.eps: c1
%%Creator: ROOT Version 6.08/00
%%CreationDate: Tue Nov 22 13:58:39 2016
%%DocumentNeededResources: ProcSet (FontSetInit)
%%EndComments
%%BeginProlog
80 dict begin
/s {stroke} def /l {lineto} def /m {moveto} def /t {translate} def
/r {rotate} def /rl {roll}  def /R {repeat} def
/d {rlineto} def /rm {rmoveto} def /gr {grestore} def /f {eofill} def
/c {setrgbcolor} def /black {0 setgray} def /sd {setdash} def
/cl {closepath} def /sf {scalefont setfont} def /lw {setlinewidth} def
/box {m dup 0 exch d exch 0 d 0 exch neg d cl} def
/NC{systemdict begin initclip end}def/C{NC box clip newpath}def
/bl {box s} def /bf {gsave box gsave f grestore 1 lw [] 0 sd s grestore} def /Y { 0 exch d} def /X { 0 d} def 
/K {{pop pop 0 moveto} exch kshow} bind def
/ita {/ang 15 def gsave [1 0 ang dup sin exch cos div 1 0 0] concat} def 
/mp {newpath /y exch def /x exch def} def
/side {[w .77 mul w .23 mul] .385 w mul sd w 0 l currentpoint t -144 r} def
/mr {mp x y w2 0 360 arc} def /m24 {mr s} def /m20 {mr f} def
/mb {mp x y w2 add m w2 neg 0 d 0 w neg d w 0 d 0 w d cl} def
/mt {mp x y w2 add m w2 neg w neg d w 0 d cl} def
/m21 {mb f} def /m25 {mb s} def /m22 {mt f} def /m26{mt s} def
/m23 {mp x y w2 sub m w2 w d w neg 0 d cl f} def
/m27 {mp x y w2 add m w3 neg w2 neg d w3 w2 neg d w3 w2 d cl s} def
/m28 {mp x w2 sub y w2 sub w3 add m w3 0 d  0 w3 neg d w3 0 d 0 w3 d w3 0 d  0 w3 d w3 neg 0 d 0 w3 d w3 neg 0 d 0 w3 neg d w3 neg 0 d cl s } def
/m29 {mp gsave x w2 sub y w2 add w3 sub m currentpoint t 4 {side} repeat cl fill gr} def
/m30 {mp gsave x w2 sub y w2 add w3 sub m currentpoint t 4 {side} repeat cl s gr} def
/m31 {mp x y w2 sub m 0 w d x w2 sub y m w 0 d x w2 sub y w2 add m w w neg d x w2 sub y w2 sub m w w d s} def
/m32 {mp x y w2 sub m w2 w d w neg 0 d cl s} def
/m33 {mp x y w2 add m w3 neg w2 neg d w3 w2 neg d w3 w2 d cl f} def
/m34 {mp x w2 sub y w2 sub w3 add m w3 0 d  0 w3 neg d w3 0 d 0 w3 d w3 0 d  0 w3 d w3 neg 0 d 0 w3 d w3 neg 0 d 0 w3 neg d w3 neg 0 d cl f } def
/m2 {mp x y w2 sub m 0 w d x w2 sub y m w 0 d s} def
/m5 {mp x w2 sub y w2 sub m w w d x w2 sub y w2 add m w w neg d s} def
%%IncludeResource: ProcSet (FontSetInit)
%%IncludeResource: font Times-Roman
%%IncludeResource: font Times-Italic
%%IncludeResource: font Times-Bold
%%IncludeResource: font Times-BoldItalic
%%IncludeResource: font Helvetica
%%IncludeResource: font Helvetica-Oblique
%%IncludeResource: font Helvetica-Bold
%%IncludeResource: font Helvetica-BoldOblique
%%IncludeResource: font Courier
%%IncludeResource: font Courier-Oblique
%%IncludeResource: font Courier-Bold
%%IncludeResource: font Courier-BoldOblique
%%IncludeResource: font Symbol
%%IncludeResource: font ZapfDingbats
/reEncode {exch findfont dup length dict begin {1 index /FID eq  {pop pop} {def} ifelse } forall /Encoding exch def currentdict end dup /FontName get exch definefont pop } def [/Times-Bold /Times-Italic /Times-BoldItalic /Helvetica /Helvetica-Oblique
 /Helvetica-Bold /Helvetica-BoldOblique /Courier /Courier-Oblique /Courier-Bold /Courier-BoldOblique /Times-Roman /AvantGarde-Book /AvantGarde-BookOblique /AvantGarde-Demi /AvantGarde-DemiOblique /Bookman-Demi /Bookman-DemiItalic /Bookman-Light
 /Bookman-LightItalic /Helvetica-Narrow /Helvetica-Narrow-Bold /Helvetica-Narrow-BoldOblique /Helvetica-Narrow-Oblique /NewCenturySchlbk-Roman /NewCenturySchlbk-Bold /NewCenturySchlbk-BoldItalic /NewCenturySchlbk-Italic /Palatino-Bold
 /Palatino-BoldItalic /Palatino-Italic /Palatino-Roman ] {ISOLatin1Encoding reEncode } forall
%%EndProlog
%%BeginSetup
%%EndSetup
newpath  gsave  .25 .25 scale  gsave  0 0 t black[  ] 0 sd 3 lw 1 1 1 c 2268 1543 0 0 bf black 1 1 1 c 1814 1235 227 154 bf black 1814 1235 227 154 bl 1 1 1 c 1814 1235 227 154 bf black 1814 1235 227 154 bl 6 lw 0.95 0.95 0.95 c black 227 156 m 9 X s
 236 156 m 9 X s 245 156 m 9 X s 254 156 m 8 X s 262 156 m 9 X s 271 156 m 9 X s 280 156 m 9 X s 289 156 m 5 X 1 Y 4 X s 298 157 m 9 X s 307 157 m 9 X s 316 157 m 9 X s 325 157 m 9 X s 334 157 m 8 X s 342 157 m 9 X s 351 157 m 9 X s 360 157 m 9 X s
 369 157 m 9 X s 378 157 m 9 X s 387 157 m 9 X s 396 157 m 9 X s 405 157 m 9 X s 414 157 m 8 X s 422 157 m 9 X s 431 157 m 9 X s 440 157 m 5 X 1 Y 4 X s 449 158 m 9 X s 458 158 m 9 X s 467 158 m 9 X s 476 158 m 9 X s 485 158 m 9 X s 494 158 m 8 X s
 502 158 m 9 X s 511 158 m 9 X s 520 158 m 9 X s 529 158 m 9 X s 538 158 m 1 Y 9 X s 547 159 m 9 X s 556 159 m 9 X s 565 159 m 9 X s 574 159 m 8 X s 582 159 m 9 X s 591 159 m 9 X s 600 159 m 3 X 1 Y 6 X s 609 160 m 9 X s 618 160 m 9 X s 627 160 m 9 X
 s 636 160 m 9 X s 645 160 m 6 X 1 Y 3 X s 654 161 m 8 X s 662 161 m 9 X s 671 161 m 9 X s 680 161 m 8 X 1 1 d s 689 162 m 9 X s 698 162 m 9 X s 707 162 m 9 X s 716 162 m 3 X 1 Y 6 X s 725 163 m 9 X s 734 163 m 8 X s 742 163 m 2 X 1 1 d 6 X s 751 164
 m 9 X s 760 164 m 6 X 1 Y 3 X s 769 165 m 9 X s 778 165 m 7 X 1 Y 2 X s 787 166 m 9 X s 796 166 m 5 X 1 Y 4 X s 805 167 m 9 X s 814 167 m 1 X 1 1 d 6 X s 822 168 m 6 X 1 Y 3 X s 831 169 m 9 X 1 Y s 840 170 m 9 X s 849 170 m 1 X 1 1 d 7 X s 858 171 m
 2 X 1 Y 7 X s 867 172 m 2 X 1 Y 7 X s 876 173 m 1 X 1 Y 7 X 1 Y 1 X s 885 175 m 6 X 1 Y 3 X s 894 176 m 4 X 1 Y 4 X s 902 177 m 2 X 1 Y 5 X 1 1 d 1 X s 911 179 m 4 X 1 Y 5 X 1 Y s 920 181 m 4 X 1 1 d 4 X 1 Y s 929 183 m 4 X 1 Y 4 X 1 Y 1 X s 938 185
 m 3 X 1 Y 4 X 1 Y 2 X s 947 187 m 1 X 1 1 d 3 X 1 Y 3 X 1 Y 1 X s 956 190 m 2 X 1 Y 3 X 1 Y 3 X 1 Y 1 X s 965 193 m 2 X 1 Y 2 X 1 Y 3 X 1 Y 2 X s 974 196 m 1 Y 2 X 1 1 d 2 X 1 Y 2 X 1 Y 1 X s 982 200 m 1 X 1 Y 2 X 1 Y 2 X 1 Y 2 X 1 Y 2 X 1 Y s 991
 205 m 2 X 1 Y 2 X 1 Y 1 X 1 1 d 1 X 1 Y 2 X 1 Y s 1000 210 m 1 X 1 1 d 1 X 1 Y 1 X 1 1 d 1 X 1 Y 1 X 1 1 d 1 X 1 Y s 1009 216 m 1 X 1 Y 1 X 1 Y 2 X 1 Y 1 X 1 Y 1 X 1 Y 1 X 1 1 d 1 X 1 Y s 1018 223 m 1 X 1 Y 1 X 1 Y 1 X 1 Y 1 X 1 Y 1 X 1 Y 1 X 1 1 d
 1 Y 1 X 1 1 d s 1027 231 m 1 Y 1 X 1 1 d 1 Y 1 X 1 Y 1 X 1 Y 1 X 1 Y 1 X 1 Y 1 X 1 Y 1 X 1 Y 1 X 1 Y s 1036 241 m 1 1 d 1 Y 1 X 1 Y 1 X 1 Y 1 X 1 Y 1 1 d 1 Y 1 X 1 Y 1 X 2 Y 1 X 1 Y 1 X s 1045 252 m 1 Y 1 1 d 1 Y 1 X 1 Y 1 1 d 1 Y 1 X 1 Y 1 1 d 1 Y
 1 1 d 1 Y 1 X 2 Y 1 X 1 Y 1 X s 1054 266 m 2 Y 1 X 2 Y 1 X 2 Y 1 X 1 Y 1 1 d 1 Y 1 1 d 1 Y 1 1 d 1 Y 1 1 d 1 Y 1 1 d 2 Y s 1062 284 m 1 X 2 Y 1 X 2 Y 1 X 2 Y 1 1 d 2 Y 1 X 2 Y 1 X 2 Y 1 1 d 2 Y 1 X 3 Y 1 X 2 Y s 1071 305 m 1 X 3 Y 1 X 2 Y 1 1 d 3 Y
 1 X 2 Y 1 1 d 2 Y 1 1 d 2 Y 1 1 d 3 Y 1 X 3 Y 1 X 3 Y s 1080 332 m 1 1 d 2 Y 1 1 d 3 Y 1 1 d 2 Y 1 1 d 3 Y 1 1 d 3 Y 1 1 d 3 Y 1 1 d 3 Y 1 1 d 3 Y 1 1 d 2 Y s 1089 365 m 1 Y 1 1 d 4 Y 1 1 d 4 Y 1 1 d 3 Y 1 1 d 4 Y 1 1 d 4 Y 1 1 d 4 Y 1 1 d 4 Y 1 1 d
 5 Y 1 1 d 2 Y s 1098 409 m 2 Y 1 1 d 5 Y 1 1 d 5 Y 1 1 d 5 Y 1 1 d 5 Y 1 1 d 6 Y 1 1 d 5 Y 1 1 d 6 Y 1 2 d 5 Y 1 1 d 3 Y s 1107 466 m 4 Y 1 1 d 6 Y 1 1 d 7 Y 1 1 d 6 Y 1 2 d 7 Y 1 2 d 6 Y 1 1 d 8 Y 1 2 d 7 Y 1 1 d 9 Y 1 2 d 1 Y s 1116 540 m 6 Y 1 1
 d 9 Y 1 2 d 8 Y 1 2 d 9 Y 1 2 d 8 Y 1 2 d 10 Y 1 2 d 9 Y 1 2 d 11 Y 1 2 d 9 Y 1 2 d 3 Y s 1125 639 m 9 Y 1 2 d 10 Y 1 2 d 13 Y 1 2 d 10 Y 1 3 d 13 Y 1 2 d 11 Y 1 3 d 13 Y 1 3 d 14 Y 1 3 d 12 Y 1 3 d s 1134 767 m 15 Y 1 3 d 12 Y 1 3 d 16 Y 1 3 d 12 Y
 1 4 d 16 Y 1 3 d 14 Y 1 3 d 17 Y 1 3 d 14 Y 1 4 d 17 Y s 1142 926 m 1 4 d 14 Y 1 3 d 18 Y 1 4 d 15 Y 1 3 d 18 Y 1 4 d 15 Y 1 3 d 19 Y 1 3 d 15 Y 1 4 d 18 Y 1 4 d 14 Y s 1151 1104 m 1 4 d 18 Y 1 3 d 14 Y 1 4 d 17 Y 1 3 d 13 Y 1 4 d 16 Y 1 3 d 12 Y 1
 3 d 15 Y 1 3 d 11 Y 1 2 d 11 Y s 1160 1260 m 2 Y 1 3 d 9 Y 1 3 d 10 Y 1 2 d 8 Y 1 2 d 8 Y 1 2 d 5 Y 1 1 d 6 Y 1 1 d 3 Y 1 1 d 3 Y 1 X 1 Y s 1169 1330 m 2 X -2 Y 1 X -4 Y 1 X -5 Y 1 -1 d -5 Y 1 -2 d -7 Y 1 -2 d -7 Y 1 -2 d -10 Y 1 -2 d -5 Y s 1178
 1276 m -4 Y 1 -3 d -12 Y 1 -3 d -10 Y 1 -3 d -14 Y 1 -3 d -12 Y 1 -3 d -16 Y 1 -3 d -13 Y 1 -4 d -17 Y 1 -3 d -14 Y 1 -3 d -7 Y s 1187 1129 m -11 Y 1 -4 d -14 Y 1 -4 d -18 Y 1 -3 d -15 Y 1 -4 d -18 Y 1 -4 d -14 Y 1 -4 d -18 Y 1 -4 d -15 Y 1 -3 d -18
 Y 1 -4 d -3 Y s 1196 951 m -11 Y 1 -4 d -17 Y 1 -4 d -14 Y 1 -3 d -17 Y 1 -4 d -13 Y 1 -4 d -16 Y 1 -3 d -13 Y 1 -3 d -16 Y 1 -3 d -13 Y 1 -3 d -3 Y s 1205 787 m -12 Y 1 -3 d -12 Y 1 -2 d -15 Y 1 -3 d -11 Y 1 -2 d -14 Y 1 -3 d -10 Y 1 -3 d -13 Y 1
 -2 d -10 Y 1 -3 d -12 Y 1 -2 d s 1214 655 m -12 Y 1 -2 d -9 Y 1 -3 d -11 Y 1 -2 d -8 Y 1 -3 d -10 Y 1 -2 d -8 Y 1 -2 d -10 Y 1 -2 d -7 Y 1 -2 d -9 Y s 1222 553 m 1 -2 d -7 Y 1 -2 d -9 Y 1 -2 d -6 Y 1 -2 d -8 Y 1 -2 d -6 Y 1 -1 d -8 Y 1 -2 d -5 Y 1
 -2 d -7 Y 1 -1 d -6 Y s 1231 475 m 1 -1 d -7 Y 1 -1 d -6 Y 1 -1 d -6 Y 1 -2 d -4 Y 1 -2 d -6 Y 1 -1 d -4 Y 1 -2 d -5 Y 1 -1 d -5 Y 1 -1 d -4 Y s 1240 416 m -1 Y 1 -1 d -4 Y 1 -1 d -5 Y 1 -1 d -4 Y 1 -1 d -5 Y 1 -1 d -3 Y 1 -1 d -4 Y 1 -1 d -4 Y 1 -1
 d -4 Y 1 -1 d -2 Y s 1249 371 m -1 Y 1 -1 d -4 Y 1 X -3 Y 1 -1 d -4 Y 1 -1 d -3 Y 1 X -4 Y 1 -1 d -3 Y 1 -1 d -2 Y 1 -1 d -3 Y 1 -1 d -1 Y s 1258 336 m -1 Y 1 -1 d -3 Y 1 -1 d -2 Y 1 -1 d -3 Y 1 X -2 Y 1 -1 d -3 Y 1 X -2 Y 1 -1 d -3 Y 1 X -2 Y 1 -1
 d -1 Y s 1267 308 m -1 Y 1 -1 d -2 Y 1 X -2 Y 1 -1 d -2 Y 1 X -2 Y 1 -1 d -2 Y 1 X -2 Y 1 -1 d -1 Y 1 -1 d -2 Y 1 X -1 Y s 1276 286 m -1 Y 1 X -2 Y 1 -1 d -1 Y 1 X -2 Y 1 -1 d -1 Y 1 X -2 Y 1 -1 d -1 Y 1 X -2 Y 1 X -2 Y 1 X s 1285 269 m -2 Y 1 X -1
 Y 1 -1 d -1 Y 1 X -2 Y 1 X -1 Y 1 -1 d -1 Y 1 X -2 Y 1 X -1 Y 1 X -2 Y 1 X s 1294 254 m -1 Y 1 X -1 Y 1 -1 d -1 Y 1 X -1 Y 1 X -2 Y 1 X -1 Y 1 X -1 Y 1 -1 d 1 -1 d -1 Y s 1302 242 m 1 X -1 Y 1 X -1 Y 1 X -1 Y 1 X -1 Y 1 -1 d -1 Y 1 X -1 Y 1 X -1 Y 1
 X -1 Y 1 X -1 Y s 1311 232 m 1 X -1 Y 1 X -1 Y 1 X -1 Y 1 X -1 Y 1 X -1 Y 1 X -1 Y 1 X -1 Y 1 X 1 -1 d s 1320 224 m 1 X -1 Y 1 X -1 Y 1 X -1 Y 1 X -1 Y 1 X 1 -1 d 1 X -1 Y 1 X -1 Y 1 X s 1329 217 m 1 -1 d 1 X -1 Y 1 X -1 Y 2 X -1 Y 1 X -1 Y 2 X -1 Y
 1 X s 1338 211 m -1 Y 2 X -1 Y 1 X -1 Y 2 X -1 Y 2 X -1 Y 2 X -1 Y s 1347 205 m 1 X 1 -1 d 1 X -1 Y 2 X -1 Y 2 X -1 Y 2 X s 1356 201 m -1 Y 2 X 1 -1 d 2 X -1 Y 2 X -1 Y 2 X s 1365 197 m -1 Y 3 X -1 Y 2 X -1 Y 3 X -1 Y 1 X s 1374 193 m 2 X -1 Y 2 X 1
 -1 d 2 X 1 -1 d s 1382 190 m 2 X 1 -1 d 3 X -1 Y 3 X -1 Y s 1391 187 m 4 X -1 Y 3 X -1 Y 2 X s 1400 185 m 2 X -1 Y 4 X -1 Y 3 X s 1409 183 m 1 X 1 -1 d 4 X -1 Y 3 X s 1418 181 m 2 X -1 Y 5 X -1 Y 2 X s 1427 179 m 3 X -1 Y 6 X -1 Y s 1436 177 m 6 X
 -1 Y 3 X s 1445 176 m 3 X -1 Y 6 X s 1454 175 m 1 X -1 Y 7 X s 1462 174 m 1 X -1 Y 8 X -1 Y s 1471 172 m 9 X -1 Y s 1480 171 m 9 X -1 Y s 1489 170 m 9 X s 1498 170 m 2 X -1 Y 7 X s 1507 169 m 4 X -1 Y 5 X s 1516 168 m 8 X -1 Y 1 X s 1525 167 m 9 X s
 1534 167 m 4 X 1 -1 d 4 X s 1543 166 m 8 X s 1551 166 m 4 X -1 Y 5 X s 1560 165 m 9 X s 1569 165 m 4 X 1 -1 d 4 X s 1578 164 m 9 X s 1587 164 m 8 X -1 Y 1 X s 1596 163 m 9 X s 1605 163 m 9 X s 1614 163 m 6 X 1 -1 d 2 X s 1623 162 m 8 X s 1631 162 m
 9 X s 1640 162 m 9 X s 1649 162 m 2 X -1 Y 7 X s 1658 161 m 9 X s 1667 161 m 9 X s 1676 161 m 9 X s 1685 161 m 4 X -1 Y 5 X s 1694 160 m 9 X s 1703 160 m 8 X s 1711 160 m 9 X s 1720 160 m 9 X s 1729 160 m 8 X -1 Y 1 X s 1738 159 m 9 X s 1747 159 m 9
 X s 1756 159 m 9 X s 1765 159 m 9 X s 1774 159 m 9 X s 1783 159 m 8 X s 1791 159 m 9 X s 1800 159 m 1 X 1 -1 d 7 X s 1809 158 m 9 X s 1818 158 m 9 X s 1827 158 m 9 X s 1836 158 m 9 X s 1845 158 m 9 X s 1854 158 m 9 X s 1863 158 m 8 X s 1871 158 m 9
 X s 1880 158 m 9 X s 1889 158 m 5 X -1 Y 4 X s 1898 157 m 9 X s 1907 157 m 9 X s 1916 157 m 9 X s 1925 157 m 9 X s 1934 157 m 9 X s 1943 157 m 8 X s 1951 157 m 9 X s 1960 157 m 9 X s 1969 157 m 9 X s 1978 157 m 9 X s 1987 157 m 9 X s 1996 157 m 9 X
 s 2005 157 m 9 X s 2014 157 m 9 X s 2023 157 m 8 X s 2031 157 m 9 X s 2040 157 m 1 X s 3 lw 227 154 m 1814 X s
 gsave  2268 1543 0 0 C 1861.61 51.982 t 0 r /Helvetica findfont 51.982 sf 0 0 m (x \(GeV\)) show NC gr  227 191 m -37 Y s 287 173 m -19 Y s 348 173 m -19 Y s 408 173 m -19 Y s 469 173 m -19 Y s 529 191 m -37 Y s 590 173 m -19 Y s 650 173 m -19 Y s
 711 173 m -19 Y s 771 173 m -19 Y s 831 191 m -37 Y s 892 173 m -19 Y s 952 173 m -19 Y s 1013 173 m -19 Y s 1073 173 m -19 Y s 1134 191 m -37 Y s 1194 173 m -19 Y s 1255 173 m -19 Y s 1315 173 m -19 Y s 1376 173 m -19 Y s 1436 191 m -37 Y s 1497
 173 m -19 Y s 1557 173 m -19 Y s 1618 173 m -19 Y s 1678 173 m -19 Y s 1739 191 m -37 Y s 1799 173 m -19 Y s 1860 173 m -19 Y s 1920 173 m -19 Y s 1980 173 m -19 Y s 2041 191 m -37 Y s
 gsave  2268 1543 0 0 C 194.933 103.964 t 0 r /Helvetica findfont 51.982 sf 0 0 m (60) show NC gr 
 gsave  2268 1543 0 0 C 497.078 103.964 t 0 r /Helvetica findfont 51.982 sf 0 0 m (70) show NC gr 
 gsave  2268 1543 0 0 C 799.224 103.964 t 0 r /Helvetica findfont 51.982 sf 0 0 m (80) show NC gr 
 gsave  2268 1543 0 0 C 1104.62 103.964 t 0 r /Helvetica findfont 51.982 sf 0 0 m (90) show NC gr 
 gsave  2268 1543 0 0 C 1390.52 103.964 t 0 r /Helvetica findfont 51.982 sf 0 0 m (100) show NC gr 
 gsave  2268 1543 0 0 C 1692.67 103.964 t 0 r /Helvetica findfont 51.982 sf 0 0 m (110) show NC gr 
 gsave  2268 1543 0 0 C 1994.81 103.964 t 0 r /Helvetica findfont 51.982 sf 0 0 m (120) show NC gr  227 154 m 1235 Y s
 gsave  2268 1543 0 0 C 113.711 1140.36 t 90 r /Helvetica findfont 51.982 sf 0 0 m ( = 2.5GeV\)) show NC gr 
 gsave  2268 1543 0 0 C 113.711 1107.87 t 90 r /Symbol findfont 51.982 sf 0 0 m (G) show NC gr 
 gsave  2268 1543 0 0 C 113.711 627.033 t 90 r /Helvetica findfont 51.982 sf 0 0 m (BR\(x; M=91.2 GeV,  ) show NC gr  281 154 m -54 X s 254 184 m -27 X s 254 213 m -27 X s 254 242 m -27 X s 254 272 m -27 X s 281 301 m -54 X s 254 330 m -27 X s 254
 360 m -27 X s 254 389 m -27 X s 254 418 m -27 X s 281 448 m -54 X s 254 477 m -27 X s 254 506 m -27 X s 254 536 m -27 X s 254 565 m -27 X s 281 594 m -54 X s 254 624 m -27 X s 254 653 m -27 X s 254 682 m -27 X s 254 712 m -27 X s 281 741 m -54 X s
 254 770 m -27 X s 254 800 m -27 X s 254 829 m -27 X s 254 858 m -27 X s 281 888 m -54 X s 254 917 m -27 X s 254 946 m -27 X s 254 976 m -27 X s 254 1005 m -27 X s 281 1034 m -54 X s 254 1064 m -27 X s 254 1093 m -27 X s 254 1122 m -27 X s 254 1152 m
 -27 X s 281 1181 m -54 X s 254 1211 m -27 X s 254 1240 m -27 X s 254 1269 m -27 X s 254 1299 m -27 X s 281 1328 m -54 X s 281 1328 m -54 X s 254 1357 m -27 X s 254 1387 m -27 X s
 gsave  2268 1543 0 0 C 185.186 136.453 t 0 r /Helvetica findfont 51.982 sf 0 0 m (0) show NC gr 
 gsave  2268 1543 0 0 C 149.448 282.652 t 0 r /Helvetica findfont 51.982 sf 0 0 m (0.1) show NC gr 
 gsave  2268 1543 0 0 C 142.951 428.852 t 0 r /Helvetica findfont 51.982 sf 0 0 m (0.2) show NC gr 
 gsave  2268 1543 0 0 C 142.951 575.051 t 0 r /Helvetica findfont 51.982 sf 0 0 m (0.3) show NC gr 
 gsave  2268 1543 0 0 C 142.951 724.5 t 0 r /Helvetica findfont 51.982 sf 0 0 m (0.4) show NC gr 
 gsave  2268 1543 0 0 C 142.951 870.699 t 0 r /Helvetica findfont 51.982 sf 0 0 m (0.5) show NC gr 
 gsave  2268 1543 0 0 C 142.951 1016.9 t 0 r /Helvetica findfont 51.982 sf 0 0 m (0.6) show NC gr 
 gsave  2268 1543 0 0 C 142.951 1163.1 t 0 r /Helvetica findfont 51.982 sf 0 0 m (0.7) show NC gr 
 gsave  2268 1543 0 0 C 142.951 1309.3 t 0 r /Helvetica findfont 51.982 sf 0 0 m (0.8) show NC gr 
 gr  gr showpage
end
%%EOF
