%!PS-Adobe-2.0 EPSF-2.0
%%BoundingBox:  0 0 567 336
%%Title: erf.eps: c1
%%Creator: ROOT Version 5.32/00
%%CreationDate: Wed Aug 13 13:27:27 2014
%%EndComments
%%BeginProlog
80 dict begin
/s {stroke} def /l {lineto} def /m {moveto} def /t {translate} def
/r {rotate} def /rl {roll}  def /R {repeat} def
/d {rlineto} def /rm {rmoveto} def /gr {grestore} def /f {eofill} def
/c {setrgbcolor} def /black {0 setgray} def /sd {setdash} def
/cl {closepath} def /sf {scalefont setfont} def /lw {setlinewidth} def
/box {m dup 0 exch d exch 0 d 0 exch neg d cl} def
/NC{systemdict begin initclip end}def/C{NC box clip newpath}def
/bl {box s} def /bf {box f} def /Y { 0 exch d} def /X { 0 d} def 
/K {{pop pop 0 moveto} exch kshow} bind def
/ita {/ang 15 def gsave [1 0 ang dup sin exch cos div 1 0 0] concat} def 
/mp {newpath /y exch def /x exch def} def
/side {[w .77 mul w .23 mul] .385 w mul sd w 0 l currentpoint t -144 r} def
/mr {mp x y w2 0 360 arc} def /m24 {mr s} def /m20 {mr f} def
/mb {mp x y w2 add m w2 neg 0 d 0 w neg d w 0 d 0 w d cl} def
/mt {mp x y w2 add m w2 neg w neg d w 0 d cl} def
/m21 {mb f} def /m25 {mb s} def /m22 {mt f} def /m26{mt s} def
/m23 {mp x y w2 sub m w2 w d w neg 0 d cl f} def
/m27 {mp x y w2 add m w3 neg w2 neg d w3 w2 neg d w3 w2 d cl s} def
/m28 {mp x w2 sub y w2 sub w3 add m w3 0 d  0 w3 neg d w3 0 d 0 w3 d w3 0 d  0 w3 d w3 neg 0 d 0 w3 d w3 neg 0 d 0 w3 neg d w3 neg 0 d cl s } def
/m29 {mp gsave x w2 sub y w2 add w3 sub m currentpoint t 4 {side} repeat cl fill gr} def
/m30 {mp gsave x w2 sub y w2 add w3 sub m currentpoint t 4 {side} repeat cl s gr} def
/m31 {mp x y w2 sub m 0 w d x w2 sub y m w 0 d x w2 sub y w2 add m w w neg d x w2 sub y w2 sub m w w d s} def
/m32 {mp x y w2 sub m w2 w d w neg 0 d cl s} def
/m33 {mp x y w2 add m w3 neg w2 neg d w3 w2 neg d w3 w2 d cl f} def
/m34 {mp x w2 sub y w2 sub w3 add m w3 0 d  0 w3 neg d w3 0 d 0 w3 d w3 0 d  0 w3 d w3 neg 0 d 0 w3 d w3 neg 0 d 0 w3 neg d w3 neg 0 d cl f } def
/m2 {mp x y w2 sub m 0 w d x w2 sub y m w 0 d s} def
/m5 {mp x w2 sub y w2 sub m w w d x w2 sub y w2 add m w w neg d s} def
/reEncode {exch findfont dup length dict begin {1 index /FID eq  {pop pop} {def} ifelse } forall /Encoding exch def currentdict end dup /FontName get exch definefont pop } def [/Times-Bold /Times-Italic /Times-BoldItalic /Helvetica /Helvetica-Oblique
 /Helvetica-Bold /Helvetica-BoldOblique /Courier /Courier-Oblique /Courier-Bold /Courier-BoldOblique /Times-Roman /AvantGarde-Book /AvantGarde-BookOblique /AvantGarde-Demi /AvantGarde-DemiOblique /Bookman-Demi /Bookman-DemiItalic /Bookman-Light
 /Bookman-LightItalic /Helvetica-Narrow /Helvetica-Narrow-Bold /Helvetica-Narrow-BoldOblique /Helvetica-Narrow-Oblique /NewCenturySchlbk-Roman /NewCenturySchlbk-Bold /NewCenturySchlbk-BoldItalic /NewCenturySchlbk-Italic /Palatino-Bold
 /Palatino-BoldItalic /Palatino-Italic /Palatino-Roman ] {ISOLatin1Encoding reEncode } forall%%EndProlog
%%BeginSetup
%%EndSetup
newpath  gsave  .25 .25 scale  gsave  0 0 t black[  ] 0 sd 3 lw 1 1 1 c 2268 1345 0 0 bf black 1 1 1 c 1633 1008 408 202 bf black 1633 1008 408 202 bl 408 202 m 1633 X s[ 4 8] 0 sd 408 1210 m -1008 Y s 680 1210 m -1008 Y s 952 1210 m -1008 Y s 1225
 1210 m -1008 Y s 1497 1210 m -1008 Y s 1769 1210 m -1008 Y s 2041 1210 m -1008 Y s[  ] 0 sd 408 202 m 1008 Y s[ 4 8] 0 sd 2041 247 m -1633 X s 2041 476 m -1633 X s 2041 705 m -1633 X s 2041 934 m -1633 X s 2041 1162 m -1633 X s 2041 247 m -1633 X s
 2041 1162 m -1633 X s[  ] 0 sd 6 lw 0.95 0.95 0.95 c black 409 247 m 80 X s 489 247 m 7 X 1 1 d 72 X s 569 248 m 69 X 1 1 d 10 X s 649 249 m 28 X 1 1 d 25 X 2 1 d 16 X 1 1 d 7 X s 729 252 m 7 X 1 1 d 10 X 2 1 d 9 X 2 1 d 7 X 1 1 d 7 X 1 1 d 7 X 2 1
 d 4 X 2 1 d 5 X 2 1 d 4 X 2 1 d 3 X 2 1 d s 809 262 m 5 X 2 1 d 3 X 1 1 d 4 X 1 1 d 2 X 2 1 d 3 X 2 1 d 3 X 1 1 d 2 X 2 1 d 1 X 2 1 d 2 X 1 1 d 3 X 2 1 d 2 X 1 1 d 2 X 2 1 d 1 X 2 1 d 2 X 1 1 d 2 1 d 1 X 2 1 d 2 X 1 1 d 2 X 2 1 d 1 1 d 2 X 2 1 d 1 1
 d 2 X 1 1 d 2 1 d s 889 285 m 2 X 1 1 d 2 1 d 2 X 1 1 d 2 1 d 1 1 d 2 X 2 1 d 1 1 d 2 1 d 2 X 1 1 d 2 1 d 2 1 d 1 1 d 2 1 d 1 X 2 1 d 2 1 d 1 1 d 2 1 d 2 1 d 1 1 d 2 1 d 1 1 d 2 1 d 2 1 d 1 1 d 2 1 d 2 1 d 1 1 d 2 1 d 2 1 d 1 1 d 2 1 d 1 1 d 2 1 d 2
 2 d 1 1 d 2 1 d 2 1 d 1 1 d 2 1 d 2 2 d 1 1 d 2 1 d 1 1 d 2 2 d s 969 332 m 2 1 d 1 1 d 2 2 d 2 1 d 1 1 d 2 2 d 1 1 d 2 1 d 2 2 d 1 1 d 2 2 d 2 1 d 1 2 d 2 1 d 2 2 d 1 1 d 2 2 d 1 1 d 2 2 d 2 1 d 1 2 d 2 1 d 2 2 d 1 2 d 2 1 d 1 2 d 2 2 d 2 1 d 1 2 d
 2 2 d 2 2 d 1 1 d 2 2 d 2 2 d 1 2 d 2 2 d 1 1 d 2 2 d 2 2 d 1 2 d 2 2 d 2 2 d 1 2 d 2 2 d 2 2 d 1 2 d 2 2 d 1 2 d 2 2 d s 1049 413 m 2 2 d 1 2 d 2 2 d 2 2 d 1 2 d 2 2 d 1 3 d 2 2 d 2 2 d 1 2 d 2 2 d 2 2 d 1 3 d 2 2 d 2 2 d 1 3 d 2 2 d 1 2 d 2 2 d 2
 3 d 1 2 d 2 3 d 2 2 d 1 2 d 2 3 d 1 2 d 2 3 d 2 2 d 1 3 d 2 2 d 2 3 d 1 2 d 2 3 d 2 2 d 1 3 d 2 2 d 1 3 d 2 2 d 2 3 d 1 3 d 2 2 d 2 3 d 1 3 d 2 2 d 2 3 d 1 3 d 2 2 d 1 3 d 2 3 d s 1129 531 m 2 3 d 1 2 d 2 3 d 2 3 d 1 3 d 2 2 d 1 3 d 2 3 d 2 3 d 1 3
 d 2 3 d 2 2 d 1 3 d 2 3 d 2 3 d 1 3 d 2 3 d 1 3 d 2 3 d 2 3 d 1 3 d 2 3 d 2 3 d 1 2 d 2 3 d 2 3 d 1 3 d 2 3 d 1 3 d 2 3 d 2 3 d 1 3 d 2 3 d 2 3 d 1 4 d 2 3 d 1 3 d 2 3 d 2 3 d 1 3 d 2 3 d 2 3 d 1 3 d 2 3 d 2 3 d 1 3 d 2 3 d 1 3 d 2 3 d s 1209 675 m
 2 4 d 1 3 d 2 3 d 2 3 d 1 3 d 2 3 d 1 3 d 2 3 d 2 3 d 1 3 d 2 3 d 2 4 d 1 3 d 2 3 d 2 3 d 1 3 d 2 3 d 1 3 d 2 3 d 2 3 d 1 3 d 2 3 d 2 4 d 1 3 d 2 3 d 2 3 d 1 3 d 2 3 d 1 3 d 2 3 d 2 3 d 1 3 d 2 3 d 2 3 d 1 3 d 2 3 d 1 3 d 2 3 d 2 3 d 1 3 d 2 3 d 2 3
 d 1 3 d 2 3 d 2 3 d 1 3 d 2 3 d 1 3 d 2 3 d s 1289 825 m 2 3 d 1 3 d 2 3 d 2 3 d 1 2 d 2 3 d 1 3 d 2 3 d 2 3 d 1 3 d 2 3 d 2 2 d 1 3 d 2 3 d 2 3 d 1 3 d 2 2 d 1 3 d 2 3 d 2 3 d 1 2 d 2 3 d 2 3 d 1 2 d 2 3 d 2 3 d 1 2 d 2 3 d 1 3 d 2 2 d 2 3 d 1 2 d
 2 3 d 2 2 d 1 3 d 2 3 d 1 2 d 2 3 d 2 2 d 1 3 d 2 2 d 2 2 d 1 3 d 2 2 d 2 3 d 1 2 d 2 2 d 1 3 d 2 2 d s 1369 955 m 2 2 d 1 3 d 2 2 d 2 2 d 1 3 d 2 2 d 1 2 d 2 2 d 2 3 d 1 2 d 2 2 d 2 2 d 1 2 d 2 2 d 2 2 d 1 3 d 2 2 d 1 2 d 2 2 d 2 2 d 1 2 d 2 2 d 2
 2 d 1 2 d 2 2 d 2 2 d 1 2 d 2 2 d 1 1 d 2 2 d 2 2 d 1 2 d 2 2 d 2 2 d 1 1 d 2 2 d 1 2 d 2 2 d 2 1 d 1 2 d 2 2 d 2 2 d 1 1 d 2 2 d 2 2 d 1 1 d 2 2 d 1 1 d 2 2 d s 1449 1051 m 2 1 d 1 2 d 2 2 d 2 1 d 1 2 d 2 1 d 2 2 d 1 1 d 2 1 d 1 2 d 2 1 d 2 2 d 1 1
 d 2 1 d 2 2 d 1 1 d 2 1 d 1 2 d 2 1 d 2 1 d 1 1 d 2 2 d 2 1 d 1 1 d 2 1 d 2 2 d 1 1 d 2 1 d 1 1 d 2 1 d 2 1 d 1 1 d 2 2 d 2 1 d 1 1 d 2 1 d 1 1 d 2 1 d 2 1 d 1 1 d 2 1 d 2 1 d 1 1 d 2 1 d 2 1 d 1 1 d 2 X 1 1 d 2 1 d s 1529 1110 m 2 1 d 1 1 d 2 1 d 2
 1 d 1 1 d 2 X 2 1 d 1 1 d 2 1 d 1 1 d 2 X 2 1 d 1 1 d 2 1 d 2 X 1 1 d 2 1 d 1 X 2 1 d 2 1 d 1 X 2 1 d 2 1 d 1 X 2 1 d 2 1 d 1 X 2 1 d 1 X 2 1 d 2 X 1 1 d 2 1 d 2 X 1 1 d 2 X 1 1 d 2 X 2 1 d 1 X 2 1 d 2 X 1 1 d 2 X 2 1 d 3 X 1 1 d 2 X s 1609 1141 m 2
 1 d 1 X 2 1 d 3 X 2 1 d 3 X 2 1 d 1 X 2 1 d 3 X 2 1 d 5 X 1 1 d 4 X 1 1 d 4 X 1 1 d 5 X 2 1 d 5 X 1 1 d 7 X 1 1 d 5 X 2 1 d 8 X 2 1 d 3 X s 1689 1155 m 5 X 2 1 d 9 X 2 1 d 10 X 1 1 d 15 X 2 1 d 19 X 2 1 d 13 X s 1769 1160 m 13 X 2 1 d 50 X 2 1 d 13
 X s 1849 1162 m 80 X s 1929 1162 m 80 X s 2009 1162 m 31 X s 3 lw 408 202 m 1633 X s
 gsave  2268 1345 0 0 C 1994.22 25.64 t 0 r /Helvetica findfont 88.3156 sf 0 0 m (x) show NC gr  408 231 m -29 Y s 463 216 m -14 Y s 517 216 m -14 Y s 571 216 m -14 Y s 626 216 m -14 Y s 680 231 m -29 Y s 735 216 m -14 Y s 789 216 m -14 Y s 844 216 m
 -14 Y s 898 216 m -14 Y s 952 231 m -29 Y s 1007 216 m -14 Y s 1061 216 m -14 Y s 1116 216 m -14 Y s 1170 216 m -14 Y s 1225 231 m -29 Y s 1279 216 m -14 Y s 1333 216 m -14 Y s 1388 216 m -14 Y s 1442 216 m -14 Y s 1497 231 m -29 Y s 1551 216 m -14
 Y s 1606 216 m -14 Y s 1660 216 m -14 Y s 1714 216 m -14 Y s 1769 231 m -29 Y s 1823 216 m -14 Y s 1878 216 m -14 Y s 1932 216 m -14 Y s 1987 216 m -14 Y s 2041 231 m -29 Y s
 gsave  2268 1345 0 0 C 367.507 122.502 t 0 r /Helvetica findfont 88.3156 sf 0 0 m (\2553) show NC gr 
 gsave  2268 1345 0 0 C 641 122.502 t 0 r /Helvetica findfont 88.3156 sf 0 0 m (\2552) show NC gr 
 gsave  2268 1345 0 0 C 920.192 122.502 t 0 r /Helvetica findfont 88.3156 sf 0 0 m (\2551) show NC gr 
 gsave  2268 1345 0 0 C 1199.38 122.502 t 0 r /Helvetica findfont 88.3156 sf 0 0 m (0) show NC gr 
 gsave  2268 1345 0 0 C 1478.57 122.502 t 0 r /Helvetica findfont 88.3156 sf 0 0 m (1) show NC gr 
 gsave  2268 1345 0 0 C 1743.52 122.502 t 0 r /Helvetica findfont 88.3156 sf 0 0 m (2) show NC gr 
 gsave  2268 1345 0 0 C 2017.01 122.502 t 0 r /Helvetica findfont 88.3156 sf 0 0 m (3) show NC gr  408 202 m 1008 Y s
 gsave  2268 1345 0 0 C 102.56 1005.66 t 90 r /Helvetica findfont 88.3156 sf 0 0 m (erf\(x\)) show NC gr  459 247 m -51 X s 434 293 m -26 X s 434 339 m -26 X s 434 385 m -26 X s 434 430 m -26 X s 459 476 m -51 X s 434 522 m -26 X s 434 568 m -26 X s
 434 613 m -26 X s 434 659 m -26 X s 459 705 m -51 X s 434 751 m -26 X s 434 796 m -26 X s 434 842 m -26 X s 434 888 m -26 X s 459 934 m -51 X s 434 979 m -26 X s 434 1025 m -26 X s 434 1071 m -26 X s 434 1116 m -26 X s 459 1162 m -51 X s 459 247 m
 -51 X s 459 1162 m -51 X s 434 1208 m -26 X s
 gsave  2268 1345 0 0 C 333.32 213.667 t 0 r /Helvetica findfont 88.3156 sf 0 0 m (\2551) show NC gr 
 gsave  2268 1345 0 0 C 245.005 444.427 t 0 r /Helvetica findfont 88.3156 sf 0 0 m (\2550.5) show NC gr 
 gsave  2268 1345 0 0 C 350.413 672.338 t 0 r /Helvetica findfont 88.3156 sf 0 0 m (0) show NC gr 
 gsave  2268 1345 0 0 C 276.342 900.249 t 0 r /Helvetica findfont 88.3156 sf 0 0 m (0.5) show NC gr 
 gsave  2268 1345 0 0 C 361.809 1128.16 t 0 r /Helvetica findfont 88.3156 sf 0 0 m (1) show NC gr 
 gr  gr showpage
end
%%EOF
