%!PS-Adobe-2.0 EPSF-2.0
%%BoundingBox:  0 0 567 336
%%Title: Gaus.eps: c1
%%Creator: ROOT Version 5.32/00
%%CreationDate: Wed Jul 30 17:34:28 2014
%%EndComments
%%BeginProlog
80 dict begin
/s {stroke} def /l {lineto} def /m {moveto} def /t {translate} def
/r {rotate} def /rl {roll}  def /R {repeat} def
/d {rlineto} def /rm {rmoveto} def /gr {grestore} def /f {eofill} def
/c {setrgbcolor} def /black {0 setgray} def /sd {setdash} def
/cl {closepath} def /sf {scalefont setfont} def /lw {setlinewidth} def
/box {m dup 0 exch d exch 0 d 0 exch neg d cl} def
/NC{systemdict begin initclip end}def/C{NC box clip newpath}def
/bl {box s} def /bf {box f} def /Y { 0 exch d} def /X { 0 d} def 
/K {{pop pop 0 moveto} exch kshow} bind def
/ita {/ang 15 def gsave [1 0 ang dup sin exch cos div 1 0 0] concat} def 
/mp {newpath /y exch def /x exch def} def
/side {[w .77 mul w .23 mul] .385 w mul sd w 0 l currentpoint t -144 r} def
/mr {mp x y w2 0 360 arc} def /m24 {mr s} def /m20 {mr f} def
/mb {mp x y w2 add m w2 neg 0 d 0 w neg d w 0 d 0 w d cl} def
/mt {mp x y w2 add m w2 neg w neg d w 0 d cl} def
/m21 {mb f} def /m25 {mb s} def /m22 {mt f} def /m26{mt s} def
/m23 {mp x y w2 sub m w2 w d w neg 0 d cl f} def
/m27 {mp x y w2 add m w3 neg w2 neg d w3 w2 neg d w3 w2 d cl s} def
/m28 {mp x w2 sub y w2 sub w3 add m w3 0 d  0 w3 neg d w3 0 d 0 w3 d w3 0 d  0 w3 d w3 neg 0 d 0 w3 d w3 neg 0 d 0 w3 neg d w3 neg 0 d cl s } def
/m29 {mp gsave x w2 sub y w2 add w3 sub m currentpoint t 4 {side} repeat cl fill gr} def
/m30 {mp gsave x w2 sub y w2 add w3 sub m currentpoint t 4 {side} repeat cl s gr} def
/m31 {mp x y w2 sub m 0 w d x w2 sub y m w 0 d x w2 sub y w2 add m w w neg d x w2 sub y w2 sub m w w d s} def
/m32 {mp x y w2 sub m w2 w d w neg 0 d cl s} def
/m33 {mp x y w2 add m w3 neg w2 neg d w3 w2 neg d w3 w2 d cl f} def
/m34 {mp x w2 sub y w2 sub w3 add m w3 0 d  0 w3 neg d w3 0 d 0 w3 d w3 0 d  0 w3 d w3 neg 0 d 0 w3 d w3 neg 0 d 0 w3 neg d w3 neg 0 d cl f } def
/m2 {mp x y w2 sub m 0 w d x w2 sub y m w 0 d s} def
/m5 {mp x w2 sub y w2 sub m w w d x w2 sub y w2 add m w w neg d s} def
/reEncode {exch findfont dup length dict begin {1 index /FID eq  {pop pop} {def} ifelse } forall /Encoding exch def currentdict end dup /FontName get exch definefont pop } def [/Times-Bold /Times-Italic /Times-BoldItalic /Helvetica /Helvetica-Oblique
 /Helvetica-Bold /Helvetica-BoldOblique /Courier /Courier-Oblique /Courier-Bold /Courier-BoldOblique /Times-Roman /AvantGarde-Book /AvantGarde-BookOblique /AvantGarde-Demi /AvantGarde-DemiOblique /Bookman-Demi /Bookman-DemiItalic /Bookman-Light
 /Bookman-LightItalic /Helvetica-Narrow /Helvetica-Narrow-Bold /Helvetica-Narrow-BoldOblique /Helvetica-Narrow-Oblique /NewCenturySchlbk-Roman /NewCenturySchlbk-Bold /NewCenturySchlbk-BoldItalic /NewCenturySchlbk-Italic /Palatino-Bold
 /Palatino-BoldItalic /Palatino-Italic /Palatino-Roman ] {ISOLatin1Encoding reEncode } forall%%EndProlog
%%BeginSetup
%%EndSetup
newpath  gsave  .25 .25 scale  gsave  0 0 t black[  ] 0 sd 3 lw 1 1 1 c 2268 1345 0 0 bf black 1 1 1 c 1633 1008 408 202 bf black 1633 1008 408 202 bl 6 lw 0.95 0.95 0.95 c black 409 202 m 80 X s 489 202 m 80 X s 569 202 m 80 X s 649 202 m 80 X s 729
 202 m 80 X s 809 202 m 80 X s 889 202 m 28 X 1 1 d 17 X 1 1 d 9 X 1 1 d 7 X 1 1 d 4 X 1 1 d 4 X 1 1 d 3 X 2 1 d s 969 209 m 2 X 1 1 d 2 X 2 1 d 1 X 2 1 d 1 1 d 2 X 2 1 d 1 1 d 2 1 d 2 X 1 1 d 2 1 d 2 1 d 1 1 d 2 1 d 1 1 d 2 2 d 2 1 d 1 1 d 2 1 d 2 2
 d 1 1 d 2 2 d 1 2 d 2 1 d 2 2 d 1 2 d 2 2 d 2 2 d 1 2 d 2 2 d 2 2 d 1 3 d 2 2 d 1 3 d 2 3 d 2 2 d 1 3 d 2 3 d 2 3 d 1 4 d 2 3 d 2 4 d 1 3 d 2 4 d 1 4 d 2 4 d s 1049 297 m 2 4 d 1 4 d 2 5 d 2 4 d 1 5 d 2 5 d 1 5 d 2 5 d 2 6 d 1 5 d 2 6 d 2 6 d 1 6 d
 2 6 d 2 6 d 1 7 d 2 6 d 1 7 d 2 7 d 2 7 d 1 8 d 2 7 d 2 8 d 1 8 d 2 8 d 1 8 d 2 9 d 2 8 d 1 9 d 2 9 d 2 9 d 1 9 d 2 9 d 2 10 d 1 9 d 2 10 d 1 10 d 2 10 d 2 10 d 1 11 d 2 10 d 2 11 d 1 11 d 2 11 d 2 10 d 1 12 d 2 11 d 1 11 d 2 11 d s 1129 686 m 2 12
 d 1 11 d 2 11 d 2 12 d 1 12 d 2 11 d 1 12 d 2 11 d 2 12 d 1 12 d 2 11 d 2 12 d 1 12 d 2 11 d 2 12 d 1 11 d 2 11 d 1 12 d 2 11 d 2 11 d 1 11 d 2 11 d 2 10 d 1 11 d 2 10 d 2 10 d 1 10 d 2 10 d 1 10 d 2 9 d 2 9 d 1 9 d 2 9 d 2 9 d 1 8 d 2 8 d 1 7 d 2 8
 d 2 7 d 1 7 d 2 6 d 2 6 d 1 6 d 2 6 d 2 5 d 1 5 d 2 4 d 1 4 d 2 4 d s 1209 1145 m 2 3 d 1 3 d 2 3 d 2 2 d 1 2 d 2 2 d 1 1 d 2 1 d 5 X 2 -1 d 1 -1 d 2 -2 d 2 -2 d 1 -2 d 2 -3 d 1 -3 d 2 -3 d 2 -4 d 1 -4 d 2 -4 d 2 -5 d 1 -5 d 2 -6 d 2 -6 d 1 -6 d 2
 -6 d 1 -7 d 2 -7 d 2 -8 d 1 -7 d 2 -8 d 2 -8 d 1 -9 d 2 -9 d 1 -9 d 2 -9 d 2 -9 d 1 -10 d 2 -10 d 2 -10 d 1 -10 d 2 -10 d 2 -11 d 1 -10 d 2 -11 d 1 -11 d 2 -11 d s 1289 905 m 2 -11 d 1 -12 d 2 -11 d 2 -11 d 1 -12 d 2 -11 d 1 -12 d 2 -12 d 2 -11 d 1
 -12 d 2 -12 d 2 -11 d 1 -12 d 2 -11 d 2 -12 d 1 -12 d 2 -11 d 1 -11 d 2 -12 d 2 -11 d 1 -11 d 2 -11 d 2 -12 d 1 -10 d 2 -11 d 2 -11 d 1 -11 d 2 -10 d 1 -11 d 2 -10 d 2 -10 d 1 -10 d 2 -10 d 2 -9 d 1 -10 d 2 -9 d 1 -9 d 2 -9 d 2 -9 d 1 -9 d 2 -8 d 2
 -9 d 1 -8 d 2 -8 d 2 -8 d 1 -8 d 2 -7 d 1 -8 d 2 -7 d s 1369 402 m 2 -7 d 1 -7 d 2 -6 d 2 -7 d 1 -6 d 2 -6 d 1 -6 d 2 -6 d 2 -6 d 1 -5 d 2 -6 d 2 -5 d 1 -5 d 2 -5 d 2 -5 d 1 -4 d 2 -5 d 1 -4 d 2 -4 d 2 -4 d 1 -4 d 2 -4 d 2 -3 d 1 -4 d 2 -3 d 2 -4 d
 1 -3 d 2 -3 d 1 -3 d 2 -2 d 2 -3 d 1 -3 d 2 -2 d 2 -3 d 1 -2 d 2 -2 d 1 -2 d 2 -2 d 2 -2 d 1 -2 d 2 -2 d 2 -1 d 1 -2 d 2 -2 d 2 -1 d 1 -2 d 2 -1 d 1 -1 d 2 -1 d s 1449 224 m 2 -2 d 1 -1 d 2 -1 d 2 -1 d 1 -1 d 2 -1 d 2 -1 d 1 X 2 -1 d 1 -1 d 2 -1 d 2
 X 1 -1 d 2 -1 d 2 X 1 -1 d 2 X 1 -1 d 2 X 2 -1 d 3 X 2 -1 d 3 X 2 -1 d 3 X 1 -1 d 7 X 2 -1 d 8 X 1 -1 d 15 X s 1529 203 m 2 X 1 -1 d 77 X s 1609 202 m 80 X s 1689 202 m 80 X s 1769 202 m 80 X s 1849 202 m 80 X s 1929 202 m 80 X s 2009 202 m 31 X s 3
 lw 408 202 m 1633 X s
 gsave  2268 1345 0 0 C 1994.22 25.64 t 0 r /Helvetica findfont 88.3156 sf 0 0 m (x) show NC gr  408 231 m -29 Y s 449 216 m -14 Y s 490 216 m -14 Y s 531 216 m -14 Y s 571 231 m -29 Y s 612 216 m -14 Y s 653 216 m -14 Y s 694 216 m -14 Y s 735 231 m
 -29 Y s 776 216 m -14 Y s 816 216 m -14 Y s 857 216 m -14 Y s 898 231 m -29 Y s 939 216 m -14 Y s 980 216 m -14 Y s 1020 216 m -14 Y s 1061 231 m -29 Y s 1102 216 m -14 Y s 1143 216 m -14 Y s 1184 216 m -14 Y s 1225 231 m -29 Y s 1265 216 m -14 Y s
 1306 216 m -14 Y s 1347 216 m -14 Y s 1388 231 m -29 Y s 1429 216 m -14 Y s 1469 216 m -14 Y s 1510 216 m -14 Y s 1551 231 m -29 Y s 1592 216 m -14 Y s 1633 216 m -14 Y s 1674 216 m -14 Y s 1714 231 m -29 Y s 1755 216 m -14 Y s 1796 216 m -14 Y s
 1837 216 m -14 Y s 1878 231 m -29 Y s 1918 216 m -14 Y s 1959 216 m -14 Y s 2000 216 m -14 Y s 2041 231 m -29 Y s
 gsave  2268 1345 0 0 C 384.6 122.502 t 0 r /Helvetica findfont 88.3156 sf 0 0 m (0) show NC gr 
 gsave  2268 1345 0 0 C 521.347 122.502 t 0 r /Helvetica findfont 88.3156 sf 0 0 m (20) show NC gr 
 gsave  2268 1345 0 0 C 683.734 122.502 t 0 r /Helvetica findfont 88.3156 sf 0 0 m (40) show NC gr 
 gsave  2268 1345 0 0 C 848.969 122.502 t 0 r /Helvetica findfont 88.3156 sf 0 0 m (60) show NC gr 
 gsave  2268 1345 0 0 C 1011.36 122.502 t 0 r /Helvetica findfont 88.3156 sf 0 0 m (80) show NC gr 
 gsave  2268 1345 0 0 C 1148.1 122.502 t 0 r /Helvetica findfont 88.3156 sf 0 0 m (100) show NC gr 
 gsave  2268 1345 0 0 C 1313.34 122.502 t 0 r /Helvetica findfont 88.3156 sf 0 0 m (120) show NC gr 
 gsave  2268 1345 0 0 C 1475.73 122.502 t 0 r /Helvetica findfont 88.3156 sf 0 0 m (140) show NC gr 
 gsave  2268 1345 0 0 C 1638.11 122.502 t 0 r /Helvetica findfont 88.3156 sf 0 0 m (160) show NC gr 
 gsave  2268 1345 0 0 C 1803.35 122.502 t 0 r /Helvetica findfont 88.3156 sf 0 0 m (180) show NC gr 
 gsave  2268 1345 0 0 C 1965.73 122.502 t 0 r /Helvetica findfont 88.3156 sf 0 0 m (200) show NC gr  408 202 m 1008 Y s
 gsave  2268 1345 0 0 C 102.56 1051.24 t 90 r /Helvetica findfont 88.3156 sf 0 0 m (P\(x\)) show NC gr  459 202 m -51 X s 434 226 m -26 X s 434 250 m -26 X s 434 274 m -26 X s 434 298 m -26 X s 459 322 m -51 X s 434 346 m -26 X s 434 370 m -26 X s
 434 394 m -26 X s 434 418 m -26 X s 459 442 m -51 X s 434 467 m -26 X s 434 491 m -26 X s 434 515 m -26 X s 434 539 m -26 X s 459 563 m -51 X s 434 587 m -26 X s 434 611 m -26 X s 434 635 m -26 X s 434 659 m -26 X s 459 683 m -51 X s 434 707 m -26 X
 s 434 731 m -26 X s 434 755 m -26 X s 434 780 m -26 X s 459 804 m -51 X s 434 828 m -26 X s 434 852 m -26 X s 434 876 m -26 X s 434 900 m -26 X s 459 924 m -51 X s 434 948 m -26 X s 434 972 m -26 X s 434 996 m -26 X s 434 1020 m -26 X s 459 1044 m
 -51 X s 434 1068 m -26 X s 434 1093 m -26 X s 434 1117 m -26 X s 434 1141 m -26 X s 459 1165 m -51 X s 459 1165 m -51 X s 434 1189 m -26 X s
 gsave  2268 1345 0 0 C 350.413 168.085 t 0 r /Helvetica findfont 88.3156 sf 0 0 m (0) show NC gr 
 gsave  2268 1345 0 0 C 176.631 290.587 t 0 r /Helvetica findfont 88.3156 sf 0 0 m (0.005) show NC gr 
 gsave  2268 1345 0 0 C 239.307 410.24 t 0 r /Helvetica findfont 88.3156 sf 0 0 m (0.01) show NC gr 
 gsave  2268 1345 0 0 C 176.631 529.894 t 0 r /Helvetica findfont 88.3156 sf 0 0 m (0.015) show NC gr 
 gsave  2268 1345 0 0 C 227.911 649.547 t 0 r /Helvetica findfont 88.3156 sf 0 0 m (0.02) show NC gr 
 gsave  2268 1345 0 0 C 176.631 772.049 t 0 r /Helvetica findfont 88.3156 sf 0 0 m (0.025) show NC gr 
 gsave  2268 1345 0 0 C 227.911 891.703 t 0 r /Helvetica findfont 88.3156 sf 0 0 m (0.03) show NC gr 
 gsave  2268 1345 0 0 C 176.631 1011.36 t 0 r /Helvetica findfont 88.3156 sf 0 0 m (0.035) show NC gr 
 gsave  2268 1345 0 0 C 227.911 1131.01 t 0 r /Helvetica findfont 88.3156 sf 0 0 m (0.04) show NC gr  6 lw 0.95 0.95 0.95 c black 409 202 m 80 X s 489 202 m 80 X s 569 202 m 70 X 2 1 d 8 X s 649 203 m 29 X 2 1 d 20 X 1 1 d 15 X 2 1 d 9 X 2 1 d s 729
 207 m 10 X 1 1 d 7 X 2 1 d 6 X 2 1 d 5 X 1 1 d 5 X 2 1 d 5 X 1 1 d 4 X 1 1 d 4 X 1 1 d 3 X 2 1 d 2 X 1 1 d 4 X 1 1 d 2 X 1 1 d 2 X 2 1 d 1 X 2 1 d s 809 221 m 2 X 1 1 d 2 X 2 1 d 1 X 2 1 d 1 X 2 1 d 2 X 1 1 d 2 X 2 1 d 1 1 d 2 X 2 1 d 1 1 d 2 X 1 1
 d 2 1 d 2 X 1 1 d 2 1 d 2 1 d 1 X 2 1 d 1 1 d 2 1 d 2 1 d 1 X 2 1 d 2 1 d 1 1 d 2 1 d 2 1 d 1 1 d 2 1 d 1 1 d 2 1 d 2 1 d 1 1 d 2 1 d 2 1 d 1 1 d 2 1 d 2 1 d 1 1 d 2 1 d 1 2 d 2 1 d s 889 260 m 2 1 d 1 1 d 2 2 d 2 1 d 1 1 d 2 1 d 1 2 d 2 1 d 2 1 d 1
 2 d 2 1 d 2 2 d 1 1 d 2 1 d 2 2 d 1 1 d 2 2 d 1 2 d 2 1 d 2 2 d 1 1 d 2 2 d 2 2 d 1 1 d 2 2 d 1 2 d 2 1 d 2 2 d 1 2 d 2 2 d 2 1 d 1 2 d 2 2 d 2 2 d 1 2 d 2 2 d 1 2 d 2 2 d 2 2 d 1 2 d 2 2 d 2 2 d 1 2 d 2 2 d 2 2 d 1 2 d 2 2 d 1 3 d 2 2 d s 969 343 m
 2 2 d 1 2 d 2 3 d 2 2 d 1 2 d 2 2 d 1 3 d 2 2 d 2 3 d 1 2 d 2 2 d 2 3 d 1 2 d 2 3 d 2 2 d 1 3 d 2 2 d 1 3 d 2 2 d 2 3 d 1 2 d 2 3 d 2 3 d 1 2 d 2 3 d 1 3 d 2 2 d 2 3 d 1 3 d 2 2 d 2 3 d 1 3 d 2 3 d 2 2 d 1 3 d 2 3 d 1 3 d 2 3 d 2 3 d 1 2 d 2 3 d 2 3
 d 1 3 d 2 3 d 2 3 d 1 3 d 2 2 d 1 3 d 2 3 d s 1049 471 m 2 3 d 1 3 d 2 3 d 2 3 d 1 3 d 2 3 d 1 3 d 2 2 d 2 3 d 1 3 d 2 3 d 2 3 d 1 3 d 2 3 d 2 3 d 1 3 d 2 3 d 1 2 d 2 3 d 2 3 d 1 3 d 2 3 d 2 3 d 1 3 d 2 2 d 1 3 d 2 3 d 2 3 d 1 3 d 2 2 d 2 3 d 1 3 d
 2 3 d 2 2 d 1 3 d 2 3 d 1 2 d 2 3 d 2 3 d 1 2 d 2 3 d 2 2 d 1 3 d 2 2 d 2 3 d 1 2 d 2 3 d 1 2 d 2 2 d s 1129 606 m 2 3 d 1 2 d 2 2 d 2 3 d 1 2 d 2 2 d 1 2 d 2 2 d 2 3 d 1 2 d 2 2 d 2 2 d 1 2 d 2 2 d 2 2 d 1 1 d 2 2 d 1 2 d 2 2 d 2 2 d 1 1 d 2 2 d 2
 2 d 1 1 d 2 2 d 2 1 d 1 2 d 2 1 d 1 2 d 2 1 d 2 1 d 1 1 d 2 2 d 2 1 d 1 1 d 2 1 d 1 1 d 2 1 d 2 1 d 1 1 d 2 1 d 2 X 1 1 d 2 1 d 2 1 d 1 X 2 1 d 1 X 2 1 d s 1209 680 m 2 X 1 1 d 5 X 2 1 d 11 X 2 -1 d 5 X 1 -1 d 2 X 2 -1 d 1 X 2 -1 d 2 X 1 -1 d 2 -1 d
 2 -1 d 1 X 2 -1 d 1 -1 d 2 -1 d 2 -1 d 1 -1 d 2 -1 d 2 -1 d 1 -1 d 2 -2 d 1 -1 d 2 -1 d 2 -1 d 1 -2 d 2 -1 d 2 -2 d 1 -1 d 2 -2 d 2 -1 d 1 -2 d 2 -2 d 1 -1 d 2 -2 d s 1289 646 m 2 -2 d 1 -2 d 2 -2 d 2 -1 d 1 -2 d 2 -2 d 1 -2 d 2 -2 d 2 -2 d 1 -2 d 2
 -3 d 2 -2 d 1 -2 d 2 -2 d 2 -2 d 1 -3 d 2 -2 d 1 -2 d 2 -3 d 2 -2 d 1 -2 d 2 -3 d 2 -2 d 1 -3 d 2 -2 d 2 -3 d 1 -2 d 2 -3 d 1 -2 d 2 -3 d 2 -3 d 1 -2 d 2 -3 d 2 -3 d 1 -2 d 2 -3 d 1 -3 d 2 -3 d 2 -2 d 1 -3 d 2 -3 d 2 -3 d 1 -3 d 2 -2 d 2 -3 d 1 -3 d
 2 -3 d 1 -3 d 2 -3 d s 1369 526 m 2 -3 d 1 -2 d 2 -3 d 2 -3 d 1 -3 d 2 -3 d 1 -3 d 2 -3 d 2 -3 d 1 -3 d 2 -3 d 2 -2 d 1 -3 d 2 -3 d 2 -3 d 1 -3 d 2 -3 d 1 -3 d 2 -3 d 2 -3 d 1 -3 d 2 -2 d 2 -3 d 1 -3 d 2 -3 d 2 -3 d 1 -3 d 2 -3 d 1 -2 d 2 -3 d 2 -3
 d 1 -3 d 2 -3 d 2 -3 d 1 -2 d 2 -3 d 1 -3 d 2 -3 d 2 -2 d 1 -3 d 2 -3 d 2 -2 d 1 -3 d 2 -3 d 2 -2 d 1 -3 d 2 -3 d 1 -2 d 2 -3 d s 1449 388 m 2 -2 d 1 -3 d 2 -2 d 2 -3 d 1 -2 d 2 -3 d 2 -2 d 1 -3 d 2 -2 d 1 -2 d 2 -3 d 2 -2 d 1 -3 d 2 -2 d 2 -2 d 1
 -2 d 2 -3 d 1 -2 d 2 -2 d 2 -2 d 1 -3 d 2 -2 d 2 -2 d 1 -2 d 2 -2 d 2 -2 d 1 -2 d 2 -2 d 1 -2 d 2 -2 d 2 -2 d 1 -2 d 2 -2 d 2 -2 d 1 -2 d 2 -2 d 1 -2 d 2 -1 d 2 -2 d 1 -2 d 2 -2 d 2 -1 d 1 -2 d 2 -2 d 2 -1 d 1 -2 d 2 -2 d 1 -1 d 2 -2 d s 1529 286 m
 2 -1 d 1 -2 d 2 -2 d 2 -1 d 1 -2 d 2 -1 d 2 -1 d 1 -2 d 2 -1 d 1 -2 d 2 -1 d 2 -1 d 1 -2 d 2 -1 d 2 -1 d 1 -1 d 2 -2 d 1 -1 d 2 -1 d 2 -1 d 1 -2 d 2 -1 d 2 -1 d 1 -1 d 2 -1 d 2 -1 d 1 -1 d 2 -1 d 1 -1 d 2 -1 d 2 -1 d 1 -1 d 2 -1 d 2 -1 d 1 -1 d 2 -1
 d 1 -1 d 2 -1 d 2 -1 d 1 X 2 -1 d 2 -1 d 1 -1 d 2 -1 d 2 X 1 -1 d 2 -1 d 1 -1 d 2 X s 1609 232 m 2 -1 d 1 -1 d 2 X 2 -1 d 1 -1 d 2 X 2 -1 d 1 -1 d 2 X 1 -1 d 2 X 2 -1 d 1 X 2 -1 d 2 X 1 -1 d 2 X 1 -1 d 2 X 2 -1 d 1 X 2 -1 d 2 X 1 -1 d 2 X 2 -1 d 3 X
 1 -1 d 2 X 2 -1 d 3 X 2 -1 d 3 X 1 -1 d 4 X 1 -1 d 5 X 2 -1 d 5 X 1 -1 d 2 X s 1689 210 m 3 X 2 -1 d 7 X 1 -1 d 7 X 1 -1 d 10 X 2 -1 d 10 X 1 -1 d 15 X 1 -1 d 20 X s 1769 204 m 2 -1 d 37 X 2 -1 d 39 X s 1849 202 m 80 X s 1929 202 m 80 X s 2009 202 m
 31 X s 0.95 0.95 0.95 c black 409 203 m 26 X 2 1 d 32 X 2 1 d 18 X s 489 205 m 5 X 2 1 d 18 X 1 1 d 15 X 1 1 d 14 X 1 1 d 10 X 2 1 d 9 X 2 1 d s 569 211 m 8 X 2 1 d 6 X 2 1 d 8 X 2 1 d 5 X 1 1 d 7 X 1 1 d 5 X 2 1 d 5 X 2 1 d 4 X 2 1 d 3 X 2 1 d 5 X
 1 1 d 4 X 1 1 d 2 X s 649 222 m 2 X 1 1 d 4 X 1 1 d 3 X 2 1 d 3 X 2 1 d 3 X 2 1 d 2 X 1 1 d 3 X 2 1 d 2 X 1 1 d 4 X 1 1 d 2 X 1 1 d 2 X 2 1 d 3 X 2 1 d 1 X 2 1 d 2 X 1 1 d 2 X 1 1 d 2 X 2 1 d 1 X 2 1 d 2 X 1 1 d 2 X 1 1 d 2 X 2 1 d 1 X 2 1 d s 729
 243 m 2 1 d 1 X 2 1 d 2 X 1 1 d 2 X 1 1 d 2 1 d 2 X 1 1 d 2 1 d 2 X 1 1 d 2 X 2 1 d 1 1 d 2 X 1 1 d 2 1 d 2 X 1 1 d 2 1 d 2 X 1 1 d 2 1 d 1 1 d 2 X 2 1 d 1 1 d 2 X 2 1 d 1 1 d 2 1 d 2 X 1 1 d 2 1 d 1 1 d 2 1 d 2 X 1 1 d 2 1 d 2 1 d 1 1 d 2 X 1 1 d 2
 1 d 2 1 d 1 1 d 2 1 d s 809 278 m 2 X 1 1 d 2 1 d 2 1 d 1 1 d 2 1 d 1 1 d 2 1 d 2 1 d 1 1 d 2 X 2 1 d 1 1 d 2 1 d 2 1 d 1 1 d 2 1 d 1 1 d 2 1 d 2 1 d 1 1 d 2 1 d 2 1 d 1 1 d 2 1 d 1 1 d 2 1 d 2 1 d 1 1 d 2 1 d 2 1 d 1 1 d 2 1 d 2 1 d 1 1 d 2 2 d 1 1
 d 2 1 d 2 1 d 1 1 d 2 1 d 2 1 d 1 1 d 2 1 d 2 1 d 1 2 d 2 1 d 1 1 d 2 1 d s 889 327 m 2 1 d 1 1 d 2 1 d 2 2 d 1 1 d 2 1 d 1 1 d 2 1 d 2 1 d 1 2 d 2 1 d 2 1 d 1 1 d 2 1 d 2 2 d 1 1 d 2 1 d 1 1 d 2 2 d 2 1 d 1 1 d 2 1 d 2 1 d 1 2 d 2 1 d 1 1 d 2 1 d 2
 2 d 1 1 d 2 1 d 2 1 d 1 2 d 2 1 d 2 1 d 1 2 d 2 1 d 1 1 d 2 1 d 2 2 d 1 1 d 2 1 d 2 1 d 1 2 d 2 1 d 2 1 d 1 2 d 2 1 d 1 1 d 2 1 d s 969 387 m 2 2 d 1 1 d 2 1 d 2 2 d 1 1 d 2 1 d 1 2 d 2 1 d 2 1 d 1 1 d 2 2 d 2 1 d 1 1 d 2 2 d 2 1 d 1 1 d 2 1 d 1 2 d
 2 1 d 2 1 d 1 2 d 2 1 d 2 1 d 1 1 d 2 2 d 1 1 d 2 1 d 2 2 d 1 1 d 2 1 d 2 1 d 1 2 d 2 1 d 2 1 d 1 1 d 2 2 d 1 1 d 2 1 d 2 1 d 1 2 d 2 1 d 2 1 d 1 1 d 2 1 d 2 2 d 1 1 d 2 1 d 1 1 d 2 1 d s 1049 449 m 2 2 d 1 1 d 2 1 d 2 1 d 1 1 d 2 1 d 1 2 d 2 1 d 2
 1 d 1 1 d 2 1 d 2 1 d 1 1 d 2 1 d 2 1 d 1 2 d 2 1 d 1 1 d 2 1 d 2 1 d 1 1 d 2 1 d 2 1 d 1 1 d 2 1 d 1 1 d 2 1 d 2 1 d 1 1 d 2 1 d 2 1 d 1 1 d 2 1 d 2 1 d 1 1 d 2 X 1 1 d 2 1 d 2 1 d 1 1 d 2 1 d 2 1 d 1 1 d 2 X 2 1 d 1 1 d 2 1 d 1 1 d 2 X s 1129 498
 m 2 1 d 1 1 d 2 1 d 2 X 1 1 d 2 1 d 1 1 d 2 X 2 1 d 1 1 d 2 X 2 1 d 1 X 2 1 d 2 1 d 1 X 2 1 d 1 X 2 1 d 2 1 d 1 X 2 1 d 2 X 1 1 d 4 X 1 1 d 2 X 1 1 d 2 X 2 1 d 3 X 2 1 d 3 X 1 1 d 5 X 2 1 d 5 X 2 1 d 6 X s 1209 521 m 3 X 2 1 d 21 X 2 -1 d 10 X 1 -1
 d 5 X 2 -1 d 5 X 1 -1 d 4 X 1 -1 d 3 X 2 -1 d 2 X 1 -1 d 2 X 2 -1 d 3 X 2 -1 d 1 X 2 -1 d 1 X 2 -1 d s 1289 511 m 2 -1 d 1 X 2 -1 d 2 X 1 -1 d 2 -1 d 1 X 2 -1 d 2 X 1 -1 d 2 -1 d 2 X 1 -1 d 2 -1 d 2 -1 d 1 X 2 -1 d 1 -1 d 2 -1 d 2 X 1 -1 d 2 -1 d 2
 -1 d 1 -1 d 2 X 2 -1 d 1 -1 d 2 -1 d 1 -1 d 2 -1 d 2 -1 d 1 -1 d 2 X 2 -1 d 1 -1 d 2 -1 d 1 -1 d 2 -1 d 2 -1 d 1 -1 d 2 -1 d 2 -1 d 1 -1 d 2 -1 d 2 -1 d 1 -1 d 2 -1 d 1 -1 d 2 -1 d s 1369 471 m 2 -1 d 1 -1 d 2 -1 d 2 -2 d 1 -1 d 2 -1 d 1 -1 d 2 -1 d
 2 -1 d 1 -1 d 2 -1 d 2 -1 d 1 -2 d 2 -1 d 2 -1 d 1 -1 d 2 -1 d 1 -1 d 2 -2 d 2 -1 d 1 -1 d 2 -1 d 2 -1 d 1 -2 d 2 -1 d 2 -1 d 1 -1 d 2 -1 d 1 -2 d 2 -1 d 2 -1 d 1 -1 d 2 -2 d 2 -1 d 1 -1 d 2 -1 d 1 -2 d 2 -1 d 2 -1 d 1 -1 d 2 -2 d 2 -1 d 1 -1 d 2 -2
 d 2 -1 d 1 -1 d 2 -1 d 1 -2 d 2 -1 d s 1449 412 m 2 -1 d 1 -2 d 2 -1 d 2 -1 d 1 -1 d 2 -2 d 2 -1 d 1 -1 d 2 -2 d 1 -1 d 2 -1 d 2 -1 d 1 -2 d 2 -1 d 2 -1 d 1 -2 d 2 -1 d 1 -1 d 2 -2 d 2 -1 d 1 -1 d 2 -1 d 2 -2 d 1 -1 d 2 -1 d 2 -2 d 1 -1 d 2 -1 d 1
 -1 d 2 -2 d 2 -1 d 1 -1 d 2 -1 d 2 -2 d 1 -1 d 2 -1 d 1 -2 d 2 -1 d 2 -1 d 1 -1 d 2 -2 d 2 -1 d 1 -1 d 2 -1 d 2 -2 d 1 -1 d 2 -1 d 1 -1 d 2 -1 d s 1529 350 m 2 -2 d 1 -1 d 2 -1 d 2 -1 d 1 -2 d 2 -1 d 2 -1 d 1 -1 d 2 -1 d 1 -2 d 2 -1 d 2 -1 d 1 -1 d
 2 -1 d 2 -1 d 1 -2 d 2 -1 d 1 -1 d 2 -1 d 2 -1 d 1 -1 d 2 -1 d 2 -2 d 1 -1 d 2 -1 d 2 -1 d 1 -1 d 2 -1 d 1 -1 d 2 -1 d 2 -1 d 1 -1 d 2 -2 d 2 -1 d 1 -1 d 2 -1 d 1 -1 d 2 -1 d 2 -1 d 1 -1 d 2 -1 d 2 -1 d 1 -1 d 2 -1 d 2 -1 d 1 -1 d 2 -1 d 1 -1 d 2 -1
 d s 1609 295 m 2 -1 d 1 -1 d 2 -1 d 2 -1 d 1 -1 d 2 -1 d 2 -1 d 1 -1 d 2 X 1 -1 d 2 -1 d 2 -1 d 1 -1 d 2 -1 d 2 -1 d 1 -1 d 2 -1 d 1 -1 d 2 X 2 -1 d 1 -1 d 2 -1 d 2 -1 d 1 -1 d 2 X 2 -1 d 1 -1 d 2 -1 d 1 -1 d 2 X 2 -1 d 1 -1 d 2 -1 d 2 -1 d 1 X 2 -1
 d 1 -1 d 2 -1 d 2 X 1 -1 d 2 -1 d 2 X 1 -1 d 2 -1 d 2 -1 d 1 X 2 -1 d 1 -1 d 2 X s 1689 255 m 2 -1 d 1 -1 d 2 X 2 -1 d 1 -1 d 2 X 2 -1 d 1 X 2 -1 d 1 -1 d 2 X 2 -1 d 1 -1 d 2 X 2 -1 d 1 X 2 -1 d 1 X 2 -1 d 2 -1 d 1 X 2 -1 d 2 X 1 -1 d 2 X 2 -1 d 1 X
 2 -1 d 1 X 2 -1 d 2 X 1 -1 d 2 X 2 -1 d 1 X 2 -1 d 1 X 2 -1 d 3 X 2 -1 d 2 X 1 -1 d 2 X 2 -1 d 3 X 1 -1 d 2 X s 1769 229 m 2 -1 d 3 X 2 -1 d 1 X 2 -1 d 3 X 2 -1 d 3 X 2 -1 d 3 X 2 -1 d 3 X 1 -1 d 4 X 1 -1 d 4 X 1 -1 d 5 X 2 -1 d 3 X 2 -1 d 5 X 1 -1
 d 5 X 2 -1 d 5 X 1 -1 d 7 X 1 -1 d 2 X s 1849 214 m 3 X 2 -1 d 8 X 2 -1 d 6 X 2 -1 d 8 X 2 -1 d 10 X 1 -1 d 10 X 2 -1 d 13 X 1 -1 d 10 X s 1929 207 m 5 X 2 -1 d 18 X 1 -1 d 23 X 2 -1 d 29 X s 2009 204 m 3 X 2 -1 d 26 X s
 gr  gr showpage
end
%%EOF
