%!PS-Adobe-2.0 EPSF-2.0
%%BoundingBox:  0 0 567 224
%%Title: Poisson_20.eps: c20
%%Creator: ROOT Version 5.32/00
%%CreationDate: Tue Aug 12 19:23:23 2014
%%EndComments
%%BeginProlog
80 dict begin
/s {stroke} def /l {lineto} def /m {moveto} def /t {translate} def
/r {rotate} def /rl {roll}  def /R {repeat} def
/d {rlineto} def /rm {rmoveto} def /gr {grestore} def /f {eofill} def
/c {setrgbcolor} def /black {0 setgray} def /sd {setdash} def
/cl {closepath} def /sf {scalefont setfont} def /lw {setlinewidth} def
/box {m dup 0 exch d exch 0 d 0 exch neg d cl} def
/NC{systemdict begin initclip end}def/C{NC box clip newpath}def
/bl {box s} def /bf {box f} def /Y { 0 exch d} def /X { 0 d} def 
/K {{pop pop 0 moveto} exch kshow} bind def
/ita {/ang 15 def gsave [1 0 ang dup sin exch cos div 1 0 0] concat} def 
/mp {newpath /y exch def /x exch def} def
/side {[w .77 mul w .23 mul] .385 w mul sd w 0 l currentpoint t -144 r} def
/mr {mp x y w2 0 360 arc} def /m24 {mr s} def /m20 {mr f} def
/mb {mp x y w2 add m w2 neg 0 d 0 w neg d w 0 d 0 w d cl} def
/mt {mp x y w2 add m w2 neg w neg d w 0 d cl} def
/m21 {mb f} def /m25 {mb s} def /m22 {mt f} def /m26{mt s} def
/m23 {mp x y w2 sub m w2 w d w neg 0 d cl f} def
/m27 {mp x y w2 add m w3 neg w2 neg d w3 w2 neg d w3 w2 d cl s} def
/m28 {mp x w2 sub y w2 sub w3 add m w3 0 d  0 w3 neg d w3 0 d 0 w3 d w3 0 d  0 w3 d w3 neg 0 d 0 w3 d w3 neg 0 d 0 w3 neg d w3 neg 0 d cl s } def
/m29 {mp gsave x w2 sub y w2 add w3 sub m currentpoint t 4 {side} repeat cl fill gr} def
/m30 {mp gsave x w2 sub y w2 add w3 sub m currentpoint t 4 {side} repeat cl s gr} def
/m31 {mp x y w2 sub m 0 w d x w2 sub y m w 0 d x w2 sub y w2 add m w w neg d x w2 sub y w2 sub m w w d s} def
/m32 {mp x y w2 sub m w2 w d w neg 0 d cl s} def
/m33 {mp x y w2 add m w3 neg w2 neg d w3 w2 neg d w3 w2 d cl f} def
/m34 {mp x w2 sub y w2 sub w3 add m w3 0 d  0 w3 neg d w3 0 d 0 w3 d w3 0 d  0 w3 d w3 neg 0 d 0 w3 d w3 neg 0 d 0 w3 neg d w3 neg 0 d cl f } def
/m2 {mp x y w2 sub m 0 w d x w2 sub y m w 0 d s} def
/m5 {mp x w2 sub y w2 sub m w w d x w2 sub y w2 add m w w neg d s} def
/reEncode {exch findfont dup length dict begin {1 index /FID eq  {pop pop} {def} ifelse } forall /Encoding exch def currentdict end dup /FontName get exch definefont pop } def [/Times-Bold /Times-Italic /Times-BoldItalic /Helvetica /Helvetica-Oblique
 /Helvetica-Bold /Helvetica-BoldOblique /Courier /Courier-Oblique /Courier-Bold /Courier-BoldOblique /Times-Roman /AvantGarde-Book /AvantGarde-BookOblique /AvantGarde-Demi /AvantGarde-DemiOblique /Bookman-Demi /Bookman-DemiItalic /Bookman-Light
 /Bookman-LightItalic /Helvetica-Narrow /Helvetica-Narrow-Bold /Helvetica-Narrow-BoldOblique /Helvetica-Narrow-Oblique /NewCenturySchlbk-Roman /NewCenturySchlbk-Bold /NewCenturySchlbk-BoldItalic /NewCenturySchlbk-Italic /Palatino-Bold
 /Palatino-BoldItalic /Palatino-Italic /Palatino-Roman ] {ISOLatin1Encoding reEncode } forall%%EndProlog
%%BeginSetup
%%EndSetup
newpath  gsave  .25 .25 scale  gsave  0 0 t black[  ] 0 sd 3 lw 1 1 1 c 2268 895 0 0 bf black 1 1 1 c 1633 671 408 134 bf black 1633 671 408 134 bl 15 lw 0.95 0.95 0.95 c black 408 134 m 245 X 1 Y 41 X 2 Y 41 X 3 Y 41 X 7 Y 40 X 13 Y 41 X 22 Y 41 X
 31 Y 41 X 43 Y 41 X 52 Y 40 X 57 Y 41 X 58 Y 41 X 51 Y 41 X 38 Y 41 X 20 Y 81 X -19 Y 41 X -35 Y 41 X -44 Y 41 X -50 Y 41 X -50 Y 40 X -46 Y 41 X -40 Y 41 X -33 Y 41 X -25 Y 41 X -18 Y 41 X -14 Y 40 X -9 Y 41 X -6 Y 41 X -3 Y 41 X -3 Y 41 X -1 Y 40
 X -1 Y 82 X -1 Y 41 X s 3 lw 408 134 m 1633 X s
 gsave  2268 895 0 0 C 2015.54 34.1295 t 0 r /Helvetica findfont 49.2982 sf 0 0 m (n) show NC gr  408 154 m -20 Y s 490 154 m -20 Y s 571 154 m -20 Y s 653 154 m -20 Y s 735 154 m -20 Y s 816 154 m -20 Y s 898 154 m -20 Y s 980 154 m -20 Y s 1061 154
 m -20 Y s 1143 154 m -20 Y s 1225 154 m -20 Y s 1306 154 m -20 Y s 1388 154 m -20 Y s 1469 154 m -20 Y s 1551 154 m -20 Y s 1633 154 m -20 Y s 1714 154 m -20 Y s 1796 154 m -20 Y s 1878 154 m -20 Y s 1959 154 m -20 Y s 2041 154 m -20 Y s
 gsave  2268 895 0 0 C 396.282 94.8042 t 0 r /Helvetica findfont 41.7138 sf 0 0 m (0) show NC gr 
 gsave  2268 895 0 0 C 477.813 94.8042 t 0 r /Helvetica findfont 41.7138 sf 0 0 m (2) show NC gr 
 gsave  2268 895 0 0 C 559.345 94.8042 t 0 r /Helvetica findfont 41.7138 sf 0 0 m (4) show NC gr 
 gsave  2268 895 0 0 C 640.876 94.8042 t 0 r /Helvetica findfont 41.7138 sf 0 0 m (6) show NC gr 
 gsave  2268 895 0 0 C 722.408 94.8042 t 0 r /Helvetica findfont 41.7138 sf 0 0 m (8) show NC gr 
 gsave  2268 895 0 0 C 792.563 94.8042 t 0 r /Helvetica findfont 41.7138 sf 0 0 m (10) show NC gr 
 gsave  2268 895 0 0 C 874.095 94.8042 t 0 r /Helvetica findfont 41.7138 sf 0 0 m (12) show NC gr 
 gsave  2268 895 0 0 C 955.626 94.8042 t 0 r /Helvetica findfont 41.7138 sf 0 0 m (14) show NC gr 
 gsave  2268 895 0 0 C 1037.16 94.8042 t 0 r /Helvetica findfont 41.7138 sf 0 0 m (16) show NC gr 
 gsave  2268 895 0 0 C 1118.69 94.8042 t 0 r /Helvetica findfont 41.7138 sf 0 0 m (18) show NC gr 
 gsave  2268 895 0 0 C 1200.22 94.8042 t 0 r /Helvetica findfont 41.7138 sf 0 0 m (20) show NC gr 
 gsave  2268 895 0 0 C 1281.75 94.8042 t 0 r /Helvetica findfont 41.7138 sf 0 0 m (22) show NC gr 
 gsave  2268 895 0 0 C 1363.28 94.8042 t 0 r /Helvetica findfont 41.7138 sf 0 0 m (24) show NC gr 
 gsave  2268 895 0 0 C 1446.71 94.8042 t 0 r /Helvetica findfont 41.7138 sf 0 0 m (26) show NC gr 
 gsave  2268 895 0 0 C 1528.24 94.8042 t 0 r /Helvetica findfont 41.7138 sf 0 0 m (28) show NC gr 
 gsave  2268 895 0 0 C 1609.78 94.8042 t 0 r /Helvetica findfont 41.7138 sf 0 0 m (30) show NC gr 
 gsave  2268 895 0 0 C 1691.31 94.8042 t 0 r /Helvetica findfont 41.7138 sf 0 0 m (32) show NC gr 
 gsave  2268 895 0 0 C 1772.84 94.8042 t 0 r /Helvetica findfont 41.7138 sf 0 0 m (34) show NC gr 
 gsave  2268 895 0 0 C 1854.37 94.8042 t 0 r /Helvetica findfont 41.7138 sf 0 0 m (36) show NC gr 
 gsave  2268 895 0 0 C 1935.9 94.8042 t 0 r /Helvetica findfont 41.7138 sf 0 0 m (38) show NC gr 
 gsave  2268 895 0 0 C 2017.43 94.8042 t 0 r /Helvetica findfont 41.7138 sf 0 0 m (40) show NC gr  408 134 m 671 Y s
 gsave  2268 895 0 0 C 94.8042 712.928 t 90 r /Helvetica findfont 49.2982 sf 0 0 m (P\(n\)) show NC gr  459 134 m -51 X s 434 157 m -26 X s 434 179 m -26 X s 434 201 m -26 X s 459 224 m -51 X s 434 246 m -26 X s 434 268 m -26 X s 434 291 m -26 X s
 459 313 m -51 X s 434 336 m -26 X s 434 358 m -26 X s 434 380 m -26 X s 459 403 m -51 X s 434 425 m -26 X s 434 447 m -26 X s 434 470 m -26 X s 459 492 m -51 X s 434 515 m -26 X s 434 537 m -26 X s 434 559 m -26 X s 459 582 m -51 X s 434 604 m -26 X
 s 434 626 m -26 X s 434 649 m -26 X s 459 671 m -51 X s 434 694 m -26 X s 434 716 m -26 X s 434 738 m -26 X s 459 761 m -51 X s 459 761 m -51 X s 434 783 m -26 X s
 gsave  2268 895 0 0 C 369.736 115.661 t 0 r /Helvetica findfont 49.2982 sf 0 0 m (0) show NC gr 
 gsave  2268 895 0 0 C 301.477 204.777 t 0 r /Helvetica findfont 49.2982 sf 0 0 m (0.02) show NC gr 
 gsave  2268 895 0 0 C 301.477 295.789 t 0 r /Helvetica findfont 49.2982 sf 0 0 m (0.04) show NC gr 
 gsave  2268 895 0 0 C 301.477 384.905 t 0 r /Helvetica findfont 49.2982 sf 0 0 m (0.06) show NC gr 
 gsave  2268 895 0 0 C 301.477 474.021 t 0 r /Helvetica findfont 49.2982 sf 0 0 m (0.08) show NC gr 
 gsave  2268 895 0 0 C 335.607 563.137 t 0 r /Helvetica findfont 49.2982 sf 0 0 m (0.1) show NC gr 
 gsave  2268 895 0 0 C 301.477 652.253 t 0 r /Helvetica findfont 49.2982 sf 0 0 m (0.12) show NC gr 
 gsave  2268 895 0 0 C 301.477 743.265 t 0 r /Helvetica findfont 49.2982 sf 0 0 m (0.14) show NC gr 
 gr  gr showpage
end
%%EOF
