%!PS-Adobe-2.0 EPSF-2.0
%%BoundingBox:  0 0 567 224
%%Title: Poisson_1.eps: c1
%%Creator: ROOT Version 5.32/00
%%CreationDate: Tue Aug 12 19:23:23 2014
%%EndComments
%%BeginProlog
80 dict begin
/s {stroke} def /l {lineto} def /m {moveto} def /t {translate} def
/r {rotate} def /rl {roll}  def /R {repeat} def
/d {rlineto} def /rm {rmoveto} def /gr {grestore} def /f {eofill} def
/c {setrgbcolor} def /black {0 setgray} def /sd {setdash} def
/cl {closepath} def /sf {scalefont setfont} def /lw {setlinewidth} def
/box {m dup 0 exch d exch 0 d 0 exch neg d cl} def
/NC{systemdict begin initclip end}def/C{NC box clip newpath}def
/bl {box s} def /bf {box f} def /Y { 0 exch d} def /X { 0 d} def 
/K {{pop pop 0 moveto} exch kshow} bind def
/ita {/ang 15 def gsave [1 0 ang dup sin exch cos div 1 0 0] concat} def 
/mp {newpath /y exch def /x exch def} def
/side {[w .77 mul w .23 mul] .385 w mul sd w 0 l currentpoint t -144 r} def
/mr {mp x y w2 0 360 arc} def /m24 {mr s} def /m20 {mr f} def
/mb {mp x y w2 add m w2 neg 0 d 0 w neg d w 0 d 0 w d cl} def
/mt {mp x y w2 add m w2 neg w neg d w 0 d cl} def
/m21 {mb f} def /m25 {mb s} def /m22 {mt f} def /m26{mt s} def
/m23 {mp x y w2 sub m w2 w d w neg 0 d cl f} def
/m27 {mp x y w2 add m w3 neg w2 neg d w3 w2 neg d w3 w2 d cl s} def
/m28 {mp x w2 sub y w2 sub w3 add m w3 0 d  0 w3 neg d w3 0 d 0 w3 d w3 0 d  0 w3 d w3 neg 0 d 0 w3 d w3 neg 0 d 0 w3 neg d w3 neg 0 d cl s } def
/m29 {mp gsave x w2 sub y w2 add w3 sub m currentpoint t 4 {side} repeat cl fill gr} def
/m30 {mp gsave x w2 sub y w2 add w3 sub m currentpoint t 4 {side} repeat cl s gr} def
/m31 {mp x y w2 sub m 0 w d x w2 sub y m w 0 d x w2 sub y w2 add m w w neg d x w2 sub y w2 sub m w w d s} def
/m32 {mp x y w2 sub m w2 w d w neg 0 d cl s} def
/m33 {mp x y w2 add m w3 neg w2 neg d w3 w2 neg d w3 w2 d cl f} def
/m34 {mp x w2 sub y w2 sub w3 add m w3 0 d  0 w3 neg d w3 0 d 0 w3 d w3 0 d  0 w3 d w3 neg 0 d 0 w3 d w3 neg 0 d 0 w3 neg d w3 neg 0 d cl f } def
/m2 {mp x y w2 sub m 0 w d x w2 sub y m w 0 d s} def
/m5 {mp x w2 sub y w2 sub m w w d x w2 sub y w2 add m w w neg d s} def
/reEncode {exch findfont dup length dict begin {1 index /FID eq  {pop pop} {def} ifelse } forall /Encoding exch def currentdict end dup /FontName get exch definefont pop } def [/Times-Bold /Times-Italic /Times-BoldItalic /Helvetica /Helvetica-Oblique
 /Helvetica-Bold /Helvetica-BoldOblique /Courier /Courier-Oblique /Courier-Bold /Courier-BoldOblique /Times-Roman /AvantGarde-Book /AvantGarde-BookOblique /AvantGarde-Demi /AvantGarde-DemiOblique /Bookman-Demi /Bookman-DemiItalic /Bookman-Light
 /Bookman-LightItalic /Helvetica-Narrow /Helvetica-Narrow-Bold /Helvetica-Narrow-BoldOblique /Helvetica-Narrow-Oblique /NewCenturySchlbk-Roman /NewCenturySchlbk-Bold /NewCenturySchlbk-BoldItalic /NewCenturySchlbk-Italic /Palatino-Bold
 /Palatino-BoldItalic /Palatino-Italic /Palatino-Roman ] {ISOLatin1Encoding reEncode } forall%%EndProlog
%%BeginSetup
%%EndSetup
newpath  gsave  .25 .25 scale  gsave  0 0 t black[  ] 0 sd 3 lw 1 1 1 c 2268 895 0 0 bf black 1 1 1 c 1633 671 408 134 bf black 1633 671 408 134 bl 15 lw 0.95 0.95 0.95 c black 408 752 m 163 X -309 Y 82 X -206 Y 82 X -77 Y 81 X -21 Y 82 X -4 Y 82 X
 -1 Y 1061 X s 3 lw 408 134 m 1633 X s
 gsave  2268 895 0 0 C 2015.54 34.1295 t 0 r /Helvetica findfont 49.2982 sf 0 0 m (n) show NC gr  408 154 m -20 Y s 490 154 m -20 Y s 571 154 m -20 Y s 653 154 m -20 Y s 735 154 m -20 Y s 816 154 m -20 Y s 898 154 m -20 Y s 980 154 m -20 Y s 1061 154
 m -20 Y s 1143 154 m -20 Y s 1225 154 m -20 Y s 1306 154 m -20 Y s 1388 154 m -20 Y s 1469 154 m -20 Y s 1551 154 m -20 Y s 1633 154 m -20 Y s 1714 154 m -20 Y s 1796 154 m -20 Y s 1878 154 m -20 Y s 1959 154 m -20 Y s 2041 154 m -20 Y s
 gsave  2268 895 0 0 C 436.099 94.8042 t 0 r /Helvetica findfont 41.7138 sf 0 0 m (0) show NC gr 
 gsave  2268 895 0 0 C 519.527 94.8042 t 0 r /Helvetica findfont 41.7138 sf 0 0 m (1) show NC gr 
 gsave  2268 895 0 0 C 599.163 94.8042 t 0 r /Helvetica findfont 41.7138 sf 0 0 m (2) show NC gr 
 gsave  2268 895 0 0 C 680.694 94.8042 t 0 r /Helvetica findfont 41.7138 sf 0 0 m (3) show NC gr 
 gsave  2268 895 0 0 C 764.122 94.8042 t 0 r /Helvetica findfont 41.7138 sf 0 0 m (4) show NC gr 
 gsave  2268 895 0 0 C 845.654 94.8042 t 0 r /Helvetica findfont 41.7138 sf 0 0 m (5) show NC gr 
 gsave  2268 895 0 0 C 927.185 94.8042 t 0 r /Helvetica findfont 41.7138 sf 0 0 m (6) show NC gr 
 gsave  2268 895 0 0 C 1008.72 94.8042 t 0 r /Helvetica findfont 41.7138 sf 0 0 m (7) show NC gr 
 gsave  2268 895 0 0 C 1090.25 94.8042 t 0 r /Helvetica findfont 41.7138 sf 0 0 m (8) show NC gr 
 gsave  2268 895 0 0 C 1171.78 94.8042 t 0 r /Helvetica findfont 41.7138 sf 0 0 m (9) show NC gr 
 gsave  2268 895 0 0 C 1241.94 94.8042 t 0 r /Helvetica findfont 41.7138 sf 0 0 m (10) show NC gr 
 gsave  2268 895 0 0 C 1327.26 94.8042 t 0 r /Helvetica findfont 41.7138 sf 0 0 m 
 20
(11) K NC gr 
 gsave  2268 895 0 0 C 1405 94.8042 t 0 r /Helvetica findfont 41.7138 sf 0 0 m (12) show NC gr 
 gsave  2268 895 0 0 C 1486.53 94.8042 t 0 r /Helvetica findfont 41.7138 sf 0 0 m (13) show NC gr 
 gsave  2268 895 0 0 C 1568.06 94.8042 t 0 r /Helvetica findfont 41.7138 sf 0 0 m (14) show NC gr 
 gsave  2268 895 0 0 C 1649.59 94.8042 t 0 r /Helvetica findfont 41.7138 sf 0 0 m (15) show NC gr 
 gsave  2268 895 0 0 C 1731.12 94.8042 t 0 r /Helvetica findfont 41.7138 sf 0 0 m (16) show NC gr 
 gsave  2268 895 0 0 C 1812.66 94.8042 t 0 r /Helvetica findfont 41.7138 sf 0 0 m (17) show NC gr 
 gsave  2268 895 0 0 C 1894.19 94.8042 t 0 r /Helvetica findfont 41.7138 sf 0 0 m (18) show NC gr 
 gsave  2268 895 0 0 C 1975.72 94.8042 t 0 r /Helvetica findfont 41.7138 sf 0 0 m (19) show NC gr  408 134 m 671 Y s
 gsave  2268 895 0 0 C 94.8042 712.928 t 90 r /Helvetica findfont 49.2982 sf 0 0 m (P\(n\)) show NC gr  459 134 m -51 X s 434 151 m -26 X s 434 168 m -26 X s 434 185 m -26 X s 434 201 m -26 X s 459 218 m -51 X s 434 235 m -26 X s 434 252 m -26 X s
 434 268 m -26 X s 434 285 m -26 X s 459 302 m -51 X s 434 319 m -26 X s 434 336 m -26 X s 434 352 m -26 X s 434 369 m -26 X s 459 386 m -51 X s 434 403 m -26 X s 434 420 m -26 X s 434 436 m -26 X s 434 453 m -26 X s 459 470 m -51 X s 434 487 m -26 X
 s 434 503 m -26 X s 434 520 m -26 X s 434 537 m -26 X s 459 554 m -51 X s 434 571 m -26 X s 434 587 m -26 X s 434 604 m -26 X s 434 621 m -26 X s 459 638 m -51 X s 434 654 m -26 X s 434 671 m -26 X s 434 688 m -26 X s 434 705 m -26 X s 459 722 m -51
 X s 434 738 m -26 X s 434 755 m -26 X s 434 772 m -26 X s 434 789 m -26 X s 459 805 m -51 X s
 gsave  2268 895 0 0 C 369.736 115.661 t 0 r /Helvetica findfont 49.2982 sf 0 0 m (0) show NC gr 
 gsave  2268 895 0 0 C 301.477 200.985 t 0 r /Helvetica findfont 49.2982 sf 0 0 m (0.05) show NC gr 
 gsave  2268 895 0 0 C 335.607 284.413 t 0 r /Helvetica findfont 49.2982 sf 0 0 m (0.1) show NC gr 
 gsave  2268 895 0 0 C 301.477 367.84 t 0 r /Helvetica findfont 49.2982 sf 0 0 m (0.15) show NC gr 
 gsave  2268 895 0 0 C 329.919 451.268 t 0 r /Helvetica findfont 49.2982 sf 0 0 m (0.2) show NC gr 
 gsave  2268 895 0 0 C 301.477 536.592 t 0 r /Helvetica findfont 49.2982 sf 0 0 m (0.25) show NC gr 
 gsave  2268 895 0 0 C 329.919 620.02 t 0 r /Helvetica findfont 49.2982 sf 0 0 m (0.3) show NC gr 
 gsave  2268 895 0 0 C 301.477 703.447 t 0 r /Helvetica findfont 49.2982 sf 0 0 m (0.35) show NC gr 
 gsave  2268 895 0 0 C 329.919 786.875 t 0 r /Helvetica findfont 49.2982 sf 0 0 m (0.4) show NC gr 
 gr  gr showpage
end
%%EOF
